{
    "componentChunkName": "component---packages-blog-gatsby-blog-core-src-templates-collection-author-js",
    "path": "/author/devfoxstar/page/3/",
    "result": {"data":{"collectionInfo":{"id":"8100adb3-9ca0-5be9-bf3c-57bf1bc368ca","name":"devfoxstar","slug":"/author/devfoxstar/","title":"Backend Developer","description":"개발자 여우별입니다. devfoxstar@gmail.com","skills":["Kotlin","Java","ASP.NET"],"social":[{"name":"Github","url":"https://github.com/devfoxstar"},{"name":"Site","url":"http://foxstar.me/"}],"thumbnail":{"__typename":"ImageSharp","ImageSharp_small":{"layout":"fixed","placeholder":{"fallback":"data:image/svg+xml,%3csvg%20xmlns='http://www.w3.org/2000/svg'%20width='48'%20height='48'%20viewBox='0%200%2048%2048'%20preserveAspectRatio='none'%3e%3cpath%20d='M7%2022l-1%207c0%206%200%206%202%206s3%200%202%202c0%202-5%203-5%200l-1-1c-2%201-2%206-1%206l1%203c0%204%202%204%202%200%201-3%207-5%207-2l1%202%201%202%206%201c6%200%207%200%208-3%201-2%202-3%205-3s3%200%203%203%200%203%206%203h5v-9h-7c-7%200-8%200-8-2-1-1%200-2%201-2%202%200%203-1%203-7%200-4-1-6-2-7l-1%205v6h-4c-4-1-4-1-4-4%200-5-1-7-4-7s-4%201-4%205c0%205%200%206-5%206H9v-5c0-6-1-7-2-5'%20fill='%23d3d3d3'%20fill-rule='evenodd'/%3e%3c/svg%3e"},"images":{"fallback":{"src":"/static/568992d156ba326baa3c5536bbf7ee4c/a7a66/devfoxstar.png","srcSet":"/static/568992d156ba326baa3c5536bbf7ee4c/a7a66/devfoxstar.png 48w,\n/static/568992d156ba326baa3c5536bbf7ee4c/416a0/devfoxstar.png 96w","sizes":"48px"},"sources":[{"srcSet":"/static/568992d156ba326baa3c5536bbf7ee4c/a3542/devfoxstar.webp 48w,\n/static/568992d156ba326baa3c5536bbf7ee4c/0f66d/devfoxstar.webp 96w","type":"image/webp","sizes":"48px"}]},"width":48,"height":48},"ImageSharp_regular":{"layout":"fixed","placeholder":{"fallback":"data:image/svg+xml,%3csvg%20xmlns='http://www.w3.org/2000/svg'%20width='48'%20height='48'%20viewBox='0%200%2048%2048'%20preserveAspectRatio='none'%3e%3cpath%20d='M7%2022l-1%207c0%206%200%206%202%206s3%200%202%202c0%202-5%203-5%200l-1-1c-2%201-2%206-1%206l1%203c0%204%202%204%202%200%201-3%207-5%207-2l1%202%201%202%206%201c6%200%207%200%208-3%201-2%202-3%205-3s3%200%203%203%200%203%206%203h5v-9h-7c-7%200-8%200-8-2-1-1%200-2%201-2%202%200%203-1%203-7%200-4-1-6-2-7l-1%205v6h-4c-4-1-4-1-4-4%200-5-1-7-4-7s-4%201-4%205c0%205%200%206-5%206H9v-5c0-6-1-7-2-5'%20fill='%23d3d3d3'%20fill-rule='evenodd'/%3e%3c/svg%3e"},"images":{"fallback":{"src":"/static/568992d156ba326baa3c5536bbf7ee4c/46e60/devfoxstar.png","srcSet":"/static/568992d156ba326baa3c5536bbf7ee4c/46e60/devfoxstar.png 150w,\n/static/568992d156ba326baa3c5536bbf7ee4c/d612b/devfoxstar.png 300w","sizes":"150px"},"sources":[{"srcSet":"/static/568992d156ba326baa3c5536bbf7ee4c/ae23d/devfoxstar.webp 150w,\n/static/568992d156ba326baa3c5536bbf7ee4c/bd37b/devfoxstar.webp 300w","type":"image/webp","sizes":"150px"}]},"width":150,"height":150}}},"posts":{"nodes":[{"id":"693d4b66-04ef-57ba-83d8-95dc781e2bb5","title":"SSH pem key 접속 오류 (bad permissions)","slug":"/os/linux-ssh-bad-permissions/","link":null,"excerpt":"오류 로컬에서  ASW EC2 Linux  서버에 접근할 때  pem key…","timeToRead":1,"featured":null,"thumbnailText":null,"date":"March 30, 2023","category":{"id":"c6a3054f-1f14-58c9-b988-6f350985442c","name":"OS","slug":"/category/os/","color":"#e9d8fd","icon":"/static/1de85bbd781531b61bf5a25b83d72d32/default.svg"},"author":{"id":"8100adb3-9ca0-5be9-bf3c-57bf1bc368ca","name":"devfoxstar","slug":"/author/devfoxstar/","title":"Backend Developer","description":"개발자 여우별입니다. devfoxstar@gmail.com","skills":["Kotlin","Java","ASP.NET"],"social":[{"name":"Github","url":"https://github.com/devfoxstar"},{"name":"Site","url":"http://foxstar.me/"}],"thumbnail":{"__typename":"ImageSharp","ImageSharp_small":{"layout":"fixed","placeholder":{"fallback":"data:image/svg+xml,%3csvg%20xmlns='http://www.w3.org/2000/svg'%20width='48'%20height='48'%20viewBox='0%200%2048%2048'%20preserveAspectRatio='none'%3e%3cpath%20d='M7%2022l-1%207c0%206%200%206%202%206s3%200%202%202c0%202-5%203-5%200l-1-1c-2%201-2%206-1%206l1%203c0%204%202%204%202%200%201-3%207-5%207-2l1%202%201%202%206%201c6%200%207%200%208-3%201-2%202-3%205-3s3%200%203%203%200%203%206%203h5v-9h-7c-7%200-8%200-8-2-1-1%200-2%201-2%202%200%203-1%203-7%200-4-1-6-2-7l-1%205v6h-4c-4-1-4-1-4-4%200-5-1-7-4-7s-4%201-4%205c0%205%200%206-5%206H9v-5c0-6-1-7-2-5'%20fill='%23d3d3d3'%20fill-rule='evenodd'/%3e%3c/svg%3e"},"images":{"fallback":{"src":"/static/568992d156ba326baa3c5536bbf7ee4c/a7a66/devfoxstar.png","srcSet":"/static/568992d156ba326baa3c5536bbf7ee4c/a7a66/devfoxstar.png 48w,\n/static/568992d156ba326baa3c5536bbf7ee4c/416a0/devfoxstar.png 96w","sizes":"48px"},"sources":[{"srcSet":"/static/568992d156ba326baa3c5536bbf7ee4c/a3542/devfoxstar.webp 48w,\n/static/568992d156ba326baa3c5536bbf7ee4c/0f66d/devfoxstar.webp 96w","type":"image/webp","sizes":"48px"}]},"width":48,"height":48},"ImageSharp_regular":{"layout":"fixed","placeholder":{"fallback":"data:image/svg+xml,%3csvg%20xmlns='http://www.w3.org/2000/svg'%20width='48'%20height='48'%20viewBox='0%200%2048%2048'%20preserveAspectRatio='none'%3e%3cpath%20d='M7%2022l-1%207c0%206%200%206%202%206s3%200%202%202c0%202-5%203-5%200l-1-1c-2%201-2%206-1%206l1%203c0%204%202%204%202%200%201-3%207-5%207-2l1%202%201%202%206%201c6%200%207%200%208-3%201-2%202-3%205-3s3%200%203%203%200%203%206%203h5v-9h-7c-7%200-8%200-8-2-1-1%200-2%201-2%202%200%203-1%203-7%200-4-1-6-2-7l-1%205v6h-4c-4-1-4-1-4-4%200-5-1-7-4-7s-4%201-4%205c0%205%200%206-5%206H9v-5c0-6-1-7-2-5'%20fill='%23d3d3d3'%20fill-rule='evenodd'/%3e%3c/svg%3e"},"images":{"fallback":{"src":"/static/568992d156ba326baa3c5536bbf7ee4c/46e60/devfoxstar.png","srcSet":"/static/568992d156ba326baa3c5536bbf7ee4c/46e60/devfoxstar.png 150w,\n/static/568992d156ba326baa3c5536bbf7ee4c/d612b/devfoxstar.png 300w","sizes":"150px"},"sources":[{"srcSet":"/static/568992d156ba326baa3c5536bbf7ee4c/ae23d/devfoxstar.webp 150w,\n/static/568992d156ba326baa3c5536bbf7ee4c/bd37b/devfoxstar.webp 300w","type":"image/webp","sizes":"150px"}]},"width":150,"height":150}}},"thumbnail":null},{"id":"7ce70061-6a85-5c0a-95bc-0f894f2ed3e9","title":"AWS MSK IAM 인증 오류 (SaslAuthenticationException, TopicAuthorizationException)","slug":"/mq/aws-msk-iam-authorization-failed/","link":null,"excerpt":"오류 클라이언트에서  AWS MSK 에  IAM  권한으로 접속을 할때 아래 오류가 발생할 수 있습니다. 해당 오류는 대부분  IAM  권한 설정 문제입니다.   IAM…","timeToRead":1,"featured":null,"thumbnailText":null,"date":"March 29, 2023","category":{"id":"c87b95d6-f92e-5c46-aad7-a36a7feb8479","name":"MQ","slug":"/category/mq/","color":"#e9d8fd","icon":"/static/1de85bbd781531b61bf5a25b83d72d32/default.svg"},"author":{"id":"8100adb3-9ca0-5be9-bf3c-57bf1bc368ca","name":"devfoxstar","slug":"/author/devfoxstar/","title":"Backend Developer","description":"개발자 여우별입니다. devfoxstar@gmail.com","skills":["Kotlin","Java","ASP.NET"],"social":[{"name":"Github","url":"https://github.com/devfoxstar"},{"name":"Site","url":"http://foxstar.me/"}],"thumbnail":{"__typename":"ImageSharp","ImageSharp_small":{"layout":"fixed","placeholder":{"fallback":"data:image/svg+xml,%3csvg%20xmlns='http://www.w3.org/2000/svg'%20width='48'%20height='48'%20viewBox='0%200%2048%2048'%20preserveAspectRatio='none'%3e%3cpath%20d='M7%2022l-1%207c0%206%200%206%202%206s3%200%202%202c0%202-5%203-5%200l-1-1c-2%201-2%206-1%206l1%203c0%204%202%204%202%200%201-3%207-5%207-2l1%202%201%202%206%201c6%200%207%200%208-3%201-2%202-3%205-3s3%200%203%203%200%203%206%203h5v-9h-7c-7%200-8%200-8-2-1-1%200-2%201-2%202%200%203-1%203-7%200-4-1-6-2-7l-1%205v6h-4c-4-1-4-1-4-4%200-5-1-7-4-7s-4%201-4%205c0%205%200%206-5%206H9v-5c0-6-1-7-2-5'%20fill='%23d3d3d3'%20fill-rule='evenodd'/%3e%3c/svg%3e"},"images":{"fallback":{"src":"/static/568992d156ba326baa3c5536bbf7ee4c/a7a66/devfoxstar.png","srcSet":"/static/568992d156ba326baa3c5536bbf7ee4c/a7a66/devfoxstar.png 48w,\n/static/568992d156ba326baa3c5536bbf7ee4c/416a0/devfoxstar.png 96w","sizes":"48px"},"sources":[{"srcSet":"/static/568992d156ba326baa3c5536bbf7ee4c/a3542/devfoxstar.webp 48w,\n/static/568992d156ba326baa3c5536bbf7ee4c/0f66d/devfoxstar.webp 96w","type":"image/webp","sizes":"48px"}]},"width":48,"height":48},"ImageSharp_regular":{"layout":"fixed","placeholder":{"fallback":"data:image/svg+xml,%3csvg%20xmlns='http://www.w3.org/2000/svg'%20width='48'%20height='48'%20viewBox='0%200%2048%2048'%20preserveAspectRatio='none'%3e%3cpath%20d='M7%2022l-1%207c0%206%200%206%202%206s3%200%202%202c0%202-5%203-5%200l-1-1c-2%201-2%206-1%206l1%203c0%204%202%204%202%200%201-3%207-5%207-2l1%202%201%202%206%201c6%200%207%200%208-3%201-2%202-3%205-3s3%200%203%203%200%203%206%203h5v-9h-7c-7%200-8%200-8-2-1-1%200-2%201-2%202%200%203-1%203-7%200-4-1-6-2-7l-1%205v6h-4c-4-1-4-1-4-4%200-5-1-7-4-7s-4%201-4%205c0%205%200%206-5%206H9v-5c0-6-1-7-2-5'%20fill='%23d3d3d3'%20fill-rule='evenodd'/%3e%3c/svg%3e"},"images":{"fallback":{"src":"/static/568992d156ba326baa3c5536bbf7ee4c/46e60/devfoxstar.png","srcSet":"/static/568992d156ba326baa3c5536bbf7ee4c/46e60/devfoxstar.png 150w,\n/static/568992d156ba326baa3c5536bbf7ee4c/d612b/devfoxstar.png 300w","sizes":"150px"},"sources":[{"srcSet":"/static/568992d156ba326baa3c5536bbf7ee4c/ae23d/devfoxstar.webp 150w,\n/static/568992d156ba326baa3c5536bbf7ee4c/bd37b/devfoxstar.webp 300w","type":"image/webp","sizes":"150px"}]},"width":150,"height":150}}},"thumbnail":null},{"id":"83d89867-bace-5afe-83cc-4855f1408315","title":"NGINX 403 Forbidden 오류 해결 방법","slug":"/web/nginx-403-forbidden/","link":null,"excerpt":"NGINX 를 설치하고 처음으로 접근할 때  403 Forbidden  오류가 발생할 수 있습니다.   40…","timeToRead":1,"featured":null,"thumbnailText":null,"date":"March 22, 2023","category":{"id":"3114be4f-d302-5f77-b8ed-55ab9daad0ef","name":"Web","slug":"/category/web/","color":"#e9d8fd","icon":"/static/1de85bbd781531b61bf5a25b83d72d32/default.svg"},"author":{"id":"8100adb3-9ca0-5be9-bf3c-57bf1bc368ca","name":"devfoxstar","slug":"/author/devfoxstar/","title":"Backend Developer","description":"개발자 여우별입니다. devfoxstar@gmail.com","skills":["Kotlin","Java","ASP.NET"],"social":[{"name":"Github","url":"https://github.com/devfoxstar"},{"name":"Site","url":"http://foxstar.me/"}],"thumbnail":{"__typename":"ImageSharp","ImageSharp_small":{"layout":"fixed","placeholder":{"fallback":"data:image/svg+xml,%3csvg%20xmlns='http://www.w3.org/2000/svg'%20width='48'%20height='48'%20viewBox='0%200%2048%2048'%20preserveAspectRatio='none'%3e%3cpath%20d='M7%2022l-1%207c0%206%200%206%202%206s3%200%202%202c0%202-5%203-5%200l-1-1c-2%201-2%206-1%206l1%203c0%204%202%204%202%200%201-3%207-5%207-2l1%202%201%202%206%201c6%200%207%200%208-3%201-2%202-3%205-3s3%200%203%203%200%203%206%203h5v-9h-7c-7%200-8%200-8-2-1-1%200-2%201-2%202%200%203-1%203-7%200-4-1-6-2-7l-1%205v6h-4c-4-1-4-1-4-4%200-5-1-7-4-7s-4%201-4%205c0%205%200%206-5%206H9v-5c0-6-1-7-2-5'%20fill='%23d3d3d3'%20fill-rule='evenodd'/%3e%3c/svg%3e"},"images":{"fallback":{"src":"/static/568992d156ba326baa3c5536bbf7ee4c/a7a66/devfoxstar.png","srcSet":"/static/568992d156ba326baa3c5536bbf7ee4c/a7a66/devfoxstar.png 48w,\n/static/568992d156ba326baa3c5536bbf7ee4c/416a0/devfoxstar.png 96w","sizes":"48px"},"sources":[{"srcSet":"/static/568992d156ba326baa3c5536bbf7ee4c/a3542/devfoxstar.webp 48w,\n/static/568992d156ba326baa3c5536bbf7ee4c/0f66d/devfoxstar.webp 96w","type":"image/webp","sizes":"48px"}]},"width":48,"height":48},"ImageSharp_regular":{"layout":"fixed","placeholder":{"fallback":"data:image/svg+xml,%3csvg%20xmlns='http://www.w3.org/2000/svg'%20width='48'%20height='48'%20viewBox='0%200%2048%2048'%20preserveAspectRatio='none'%3e%3cpath%20d='M7%2022l-1%207c0%206%200%206%202%206s3%200%202%202c0%202-5%203-5%200l-1-1c-2%201-2%206-1%206l1%203c0%204%202%204%202%200%201-3%207-5%207-2l1%202%201%202%206%201c6%200%207%200%208-3%201-2%202-3%205-3s3%200%203%203%200%203%206%203h5v-9h-7c-7%200-8%200-8-2-1-1%200-2%201-2%202%200%203-1%203-7%200-4-1-6-2-7l-1%205v6h-4c-4-1-4-1-4-4%200-5-1-7-4-7s-4%201-4%205c0%205%200%206-5%206H9v-5c0-6-1-7-2-5'%20fill='%23d3d3d3'%20fill-rule='evenodd'/%3e%3c/svg%3e"},"images":{"fallback":{"src":"/static/568992d156ba326baa3c5536bbf7ee4c/46e60/devfoxstar.png","srcSet":"/static/568992d156ba326baa3c5536bbf7ee4c/46e60/devfoxstar.png 150w,\n/static/568992d156ba326baa3c5536bbf7ee4c/d612b/devfoxstar.png 300w","sizes":"150px"},"sources":[{"srcSet":"/static/568992d156ba326baa3c5536bbf7ee4c/ae23d/devfoxstar.webp 150w,\n/static/568992d156ba326baa3c5536bbf7ee4c/bd37b/devfoxstar.webp 300w","type":"image/webp","sizes":"150px"}]},"width":150,"height":150}}},"thumbnail":null},{"id":"712ea4f0-9229-50d4-b1d8-f3f3ad27fc28","title":"Kotlin firstOrNull, lastOrNull","slug":"/kotlin/firstornull-lastornull/","link":null,"excerpt":"first, last 먼저  first ,  last  메서드를 알아보겠습니다. 리스트의 처음과 끝의 값을 가져오는 간단한 기능입니다.   firstOrNull…","timeToRead":1,"featured":null,"thumbnailText":null,"date":"March 20, 2023","category":{"id":"a137fa3d-c822-56d6-87c6-c57e5cdc5461","name":"Kotlin","slug":"/category/kotlin/","color":"#e9d8fd","icon":"/static/1de85bbd781531b61bf5a25b83d72d32/default.svg"},"author":{"id":"8100adb3-9ca0-5be9-bf3c-57bf1bc368ca","name":"devfoxstar","slug":"/author/devfoxstar/","title":"Backend Developer","description":"개발자 여우별입니다. devfoxstar@gmail.com","skills":["Kotlin","Java","ASP.NET"],"social":[{"name":"Github","url":"https://github.com/devfoxstar"},{"name":"Site","url":"http://foxstar.me/"}],"thumbnail":{"__typename":"ImageSharp","ImageSharp_small":{"layout":"fixed","placeholder":{"fallback":"data:image/svg+xml,%3csvg%20xmlns='http://www.w3.org/2000/svg'%20width='48'%20height='48'%20viewBox='0%200%2048%2048'%20preserveAspectRatio='none'%3e%3cpath%20d='M7%2022l-1%207c0%206%200%206%202%206s3%200%202%202c0%202-5%203-5%200l-1-1c-2%201-2%206-1%206l1%203c0%204%202%204%202%200%201-3%207-5%207-2l1%202%201%202%206%201c6%200%207%200%208-3%201-2%202-3%205-3s3%200%203%203%200%203%206%203h5v-9h-7c-7%200-8%200-8-2-1-1%200-2%201-2%202%200%203-1%203-7%200-4-1-6-2-7l-1%205v6h-4c-4-1-4-1-4-4%200-5-1-7-4-7s-4%201-4%205c0%205%200%206-5%206H9v-5c0-6-1-7-2-5'%20fill='%23d3d3d3'%20fill-rule='evenodd'/%3e%3c/svg%3e"},"images":{"fallback":{"src":"/static/568992d156ba326baa3c5536bbf7ee4c/a7a66/devfoxstar.png","srcSet":"/static/568992d156ba326baa3c5536bbf7ee4c/a7a66/devfoxstar.png 48w,\n/static/568992d156ba326baa3c5536bbf7ee4c/416a0/devfoxstar.png 96w","sizes":"48px"},"sources":[{"srcSet":"/static/568992d156ba326baa3c5536bbf7ee4c/a3542/devfoxstar.webp 48w,\n/static/568992d156ba326baa3c5536bbf7ee4c/0f66d/devfoxstar.webp 96w","type":"image/webp","sizes":"48px"}]},"width":48,"height":48},"ImageSharp_regular":{"layout":"fixed","placeholder":{"fallback":"data:image/svg+xml,%3csvg%20xmlns='http://www.w3.org/2000/svg'%20width='48'%20height='48'%20viewBox='0%200%2048%2048'%20preserveAspectRatio='none'%3e%3cpath%20d='M7%2022l-1%207c0%206%200%206%202%206s3%200%202%202c0%202-5%203-5%200l-1-1c-2%201-2%206-1%206l1%203c0%204%202%204%202%200%201-3%207-5%207-2l1%202%201%202%206%201c6%200%207%200%208-3%201-2%202-3%205-3s3%200%203%203%200%203%206%203h5v-9h-7c-7%200-8%200-8-2-1-1%200-2%201-2%202%200%203-1%203-7%200-4-1-6-2-7l-1%205v6h-4c-4-1-4-1-4-4%200-5-1-7-4-7s-4%201-4%205c0%205%200%206-5%206H9v-5c0-6-1-7-2-5'%20fill='%23d3d3d3'%20fill-rule='evenodd'/%3e%3c/svg%3e"},"images":{"fallback":{"src":"/static/568992d156ba326baa3c5536bbf7ee4c/46e60/devfoxstar.png","srcSet":"/static/568992d156ba326baa3c5536bbf7ee4c/46e60/devfoxstar.png 150w,\n/static/568992d156ba326baa3c5536bbf7ee4c/d612b/devfoxstar.png 300w","sizes":"150px"},"sources":[{"srcSet":"/static/568992d156ba326baa3c5536bbf7ee4c/ae23d/devfoxstar.webp 150w,\n/static/568992d156ba326baa3c5536bbf7ee4c/bd37b/devfoxstar.webp 300w","type":"image/webp","sizes":"150px"}]},"width":150,"height":150}}},"thumbnail":null},{"id":"cae9a774-2fcc-5e51-9d29-dcb117e17cae","title":"Kotlin Json 직렬화 (kotlinx.serialization)","slug":"/kotlin/serialization-json/","link":null,"excerpt":"Kotlin 에서  Json 을 직렬화하는 방법을 알아보겠습니다. 기존에는  Jackson 과  Gson  라이브러리를 주로 활용했습니다.   최근에  Jetbrains…","timeToRead":1,"featured":null,"thumbnailText":null,"date":"March 19, 2023","category":{"id":"a137fa3d-c822-56d6-87c6-c57e5cdc5461","name":"Kotlin","slug":"/category/kotlin/","color":"#e9d8fd","icon":"/static/1de85bbd781531b61bf5a25b83d72d32/default.svg"},"author":{"id":"8100adb3-9ca0-5be9-bf3c-57bf1bc368ca","name":"devfoxstar","slug":"/author/devfoxstar/","title":"Backend Developer","description":"개발자 여우별입니다. devfoxstar@gmail.com","skills":["Kotlin","Java","ASP.NET"],"social":[{"name":"Github","url":"https://github.com/devfoxstar"},{"name":"Site","url":"http://foxstar.me/"}],"thumbnail":{"__typename":"ImageSharp","ImageSharp_small":{"layout":"fixed","placeholder":{"fallback":"data:image/svg+xml,%3csvg%20xmlns='http://www.w3.org/2000/svg'%20width='48'%20height='48'%20viewBox='0%200%2048%2048'%20preserveAspectRatio='none'%3e%3cpath%20d='M7%2022l-1%207c0%206%200%206%202%206s3%200%202%202c0%202-5%203-5%200l-1-1c-2%201-2%206-1%206l1%203c0%204%202%204%202%200%201-3%207-5%207-2l1%202%201%202%206%201c6%200%207%200%208-3%201-2%202-3%205-3s3%200%203%203%200%203%206%203h5v-9h-7c-7%200-8%200-8-2-1-1%200-2%201-2%202%200%203-1%203-7%200-4-1-6-2-7l-1%205v6h-4c-4-1-4-1-4-4%200-5-1-7-4-7s-4%201-4%205c0%205%200%206-5%206H9v-5c0-6-1-7-2-5'%20fill='%23d3d3d3'%20fill-rule='evenodd'/%3e%3c/svg%3e"},"images":{"fallback":{"src":"/static/568992d156ba326baa3c5536bbf7ee4c/a7a66/devfoxstar.png","srcSet":"/static/568992d156ba326baa3c5536bbf7ee4c/a7a66/devfoxstar.png 48w,\n/static/568992d156ba326baa3c5536bbf7ee4c/416a0/devfoxstar.png 96w","sizes":"48px"},"sources":[{"srcSet":"/static/568992d156ba326baa3c5536bbf7ee4c/a3542/devfoxstar.webp 48w,\n/static/568992d156ba326baa3c5536bbf7ee4c/0f66d/devfoxstar.webp 96w","type":"image/webp","sizes":"48px"}]},"width":48,"height":48},"ImageSharp_regular":{"layout":"fixed","placeholder":{"fallback":"data:image/svg+xml,%3csvg%20xmlns='http://www.w3.org/2000/svg'%20width='48'%20height='48'%20viewBox='0%200%2048%2048'%20preserveAspectRatio='none'%3e%3cpath%20d='M7%2022l-1%207c0%206%200%206%202%206s3%200%202%202c0%202-5%203-5%200l-1-1c-2%201-2%206-1%206l1%203c0%204%202%204%202%200%201-3%207-5%207-2l1%202%201%202%206%201c6%200%207%200%208-3%201-2%202-3%205-3s3%200%203%203%200%203%206%203h5v-9h-7c-7%200-8%200-8-2-1-1%200-2%201-2%202%200%203-1%203-7%200-4-1-6-2-7l-1%205v6h-4c-4-1-4-1-4-4%200-5-1-7-4-7s-4%201-4%205c0%205%200%206-5%206H9v-5c0-6-1-7-2-5'%20fill='%23d3d3d3'%20fill-rule='evenodd'/%3e%3c/svg%3e"},"images":{"fallback":{"src":"/static/568992d156ba326baa3c5536bbf7ee4c/46e60/devfoxstar.png","srcSet":"/static/568992d156ba326baa3c5536bbf7ee4c/46e60/devfoxstar.png 150w,\n/static/568992d156ba326baa3c5536bbf7ee4c/d612b/devfoxstar.png 300w","sizes":"150px"},"sources":[{"srcSet":"/static/568992d156ba326baa3c5536bbf7ee4c/ae23d/devfoxstar.webp 150w,\n/static/568992d156ba326baa3c5536bbf7ee4c/bd37b/devfoxstar.webp 300w","type":"image/webp","sizes":"150px"}]},"width":150,"height":150}}},"thumbnail":null},{"id":"f0dc457c-4c70-5856-a8ac-a67ff1f5c5ba","title":"Kafka 설치 방법과 기본 명령어 (Mac)","slug":"/mq/kafka-install-and-command-in-mac/","link":null,"excerpt":"Kafka…","timeToRead":1,"featured":null,"thumbnailText":null,"date":"March 18, 2023","category":{"id":"c87b95d6-f92e-5c46-aad7-a36a7feb8479","name":"MQ","slug":"/category/mq/","color":"#e9d8fd","icon":"/static/1de85bbd781531b61bf5a25b83d72d32/default.svg"},"author":{"id":"8100adb3-9ca0-5be9-bf3c-57bf1bc368ca","name":"devfoxstar","slug":"/author/devfoxstar/","title":"Backend Developer","description":"개발자 여우별입니다. devfoxstar@gmail.com","skills":["Kotlin","Java","ASP.NET"],"social":[{"name":"Github","url":"https://github.com/devfoxstar"},{"name":"Site","url":"http://foxstar.me/"}],"thumbnail":{"__typename":"ImageSharp","ImageSharp_small":{"layout":"fixed","placeholder":{"fallback":"data:image/svg+xml,%3csvg%20xmlns='http://www.w3.org/2000/svg'%20width='48'%20height='48'%20viewBox='0%200%2048%2048'%20preserveAspectRatio='none'%3e%3cpath%20d='M7%2022l-1%207c0%206%200%206%202%206s3%200%202%202c0%202-5%203-5%200l-1-1c-2%201-2%206-1%206l1%203c0%204%202%204%202%200%201-3%207-5%207-2l1%202%201%202%206%201c6%200%207%200%208-3%201-2%202-3%205-3s3%200%203%203%200%203%206%203h5v-9h-7c-7%200-8%200-8-2-1-1%200-2%201-2%202%200%203-1%203-7%200-4-1-6-2-7l-1%205v6h-4c-4-1-4-1-4-4%200-5-1-7-4-7s-4%201-4%205c0%205%200%206-5%206H9v-5c0-6-1-7-2-5'%20fill='%23d3d3d3'%20fill-rule='evenodd'/%3e%3c/svg%3e"},"images":{"fallback":{"src":"/static/568992d156ba326baa3c5536bbf7ee4c/a7a66/devfoxstar.png","srcSet":"/static/568992d156ba326baa3c5536bbf7ee4c/a7a66/devfoxstar.png 48w,\n/static/568992d156ba326baa3c5536bbf7ee4c/416a0/devfoxstar.png 96w","sizes":"48px"},"sources":[{"srcSet":"/static/568992d156ba326baa3c5536bbf7ee4c/a3542/devfoxstar.webp 48w,\n/static/568992d156ba326baa3c5536bbf7ee4c/0f66d/devfoxstar.webp 96w","type":"image/webp","sizes":"48px"}]},"width":48,"height":48},"ImageSharp_regular":{"layout":"fixed","placeholder":{"fallback":"data:image/svg+xml,%3csvg%20xmlns='http://www.w3.org/2000/svg'%20width='48'%20height='48'%20viewBox='0%200%2048%2048'%20preserveAspectRatio='none'%3e%3cpath%20d='M7%2022l-1%207c0%206%200%206%202%206s3%200%202%202c0%202-5%203-5%200l-1-1c-2%201-2%206-1%206l1%203c0%204%202%204%202%200%201-3%207-5%207-2l1%202%201%202%206%201c6%200%207%200%208-3%201-2%202-3%205-3s3%200%203%203%200%203%206%203h5v-9h-7c-7%200-8%200-8-2-1-1%200-2%201-2%202%200%203-1%203-7%200-4-1-6-2-7l-1%205v6h-4c-4-1-4-1-4-4%200-5-1-7-4-7s-4%201-4%205c0%205%200%206-5%206H9v-5c0-6-1-7-2-5'%20fill='%23d3d3d3'%20fill-rule='evenodd'/%3e%3c/svg%3e"},"images":{"fallback":{"src":"/static/568992d156ba326baa3c5536bbf7ee4c/46e60/devfoxstar.png","srcSet":"/static/568992d156ba326baa3c5536bbf7ee4c/46e60/devfoxstar.png 150w,\n/static/568992d156ba326baa3c5536bbf7ee4c/d612b/devfoxstar.png 300w","sizes":"150px"},"sources":[{"srcSet":"/static/568992d156ba326baa3c5536bbf7ee4c/ae23d/devfoxstar.webp 150w,\n/static/568992d156ba326baa3c5536bbf7ee4c/bd37b/devfoxstar.webp 300w","type":"image/webp","sizes":"150px"}]},"width":150,"height":150}}},"thumbnail":null}],"pageInfo":{"pageCount":18,"hasPreviousPage":true,"hasNextPage":true,"currentPage":3},"totalCount":103}},"pageContext":{"slug":"/author/devfoxstar/","limit":6,"skip":12,"collectionType":"author","paginatePostsPage":true,"basePath":"/","services":{"algolia":false,"mailchimp":false,"disqus":false,"graphComment":false,"facebookComment":false},"siteUrl":null,"mobileMenu":{"title":"Topics","items":[{"name":"Database","slug":"/category/database/"},{"name":"DesignPattern","slug":"/category/designpattern/"},{"name":"Development","slug":"/category/development/"},{"name":"Data Structure","slug":"/category/data-structure/"},{"name":"Git","slug":"/category/git/"},{"name":"Java","slug":"/category/java/"},{"name":"Kotlin","slug":"/category/kotlin/"},{"name":"Middleware","slug":"/category/middleware/"},{"name":"MQ","slug":"/category/mq/"},{"name":"OS","slug":"/category/os/"},{"name":"PHP","slug":"/category/php/"},{"name":"Python","slug":"/category/python/"},{"name":"Test","slug":"/category/test/"},{"name":"Spring","slug":"/category/spring/"},{"name":"Web","slug":"/category/web/"}]},"darkMode":true,"includeExcerpt":true,"includeTimeToRead":true,"includeTableOfContents":true,"imageQuality":75}},
    "staticQueryHashes": ["1992822086","3117598128"]}