{
    "componentChunkName": "component---packages-blog-gatsby-blog-core-src-templates-collection-tag-js",
    "path": "/tag/page/4/",
    "result": {"data":{"collectionInfo":{"id":"53caded1-1ffb-5a66-a25b-68b72fa7e17b","name":"#데이터베이스","slug":"/tag/"},"posts":{"nodes":[],"pageInfo":{"pageCount":3,"hasPreviousPage":true,"hasNextPage":false,"currentPage":4},"totalCount":15}},"pageContext":{"slug":"/tag/","limit":6,"skip":18,"collectionType":"tags","paginatePostsPage":true,"basePath":"/","services":{"algolia":false,"mailchimp":false,"disqus":false,"graphComment":false,"facebookComment":false},"siteUrl":null,"mobileMenu":{"title":"Topics","items":[{"name":"Database","slug":"/category/database/"},{"name":"Data Structure","slug":"/category/data-structure/"},{"name":"Git","slug":"/category/git/"},{"name":"Java","slug":"/category/java/"},{"name":"Middleware","slug":"/category/middleware/"},{"name":"OS","slug":"/category/os/"},{"name":"Python","slug":"/category/python/"},{"name":"Web","slug":"/category/web/"},{"name":"Kotlin","slug":"/category/kotlin/"},{"name":"DesignPattern","slug":"/category/designpattern/"}]},"darkMode":true,"includeExcerpt":true,"includeTimeToRead":true,"includeTableOfContents":true,"imageQuality":75}},
    "staticQueryHashes": ["1992822086","3117598128"]}