{
    "componentChunkName": "component---packages-blog-gatsby-blog-core-src-templates-collection-tag-js",
    "path": "/tag/page/3/",
    "result": {"data":{"collectionInfo":{"id":"70665ba5-93a7-500f-8ec6-3f4d580b2271","name":"#자료구조","slug":"/tag/"},"posts":{"nodes":[],"pageInfo":{"pageCount":2,"hasPreviousPage":true,"hasNextPage":false,"currentPage":3},"totalCount":11}},"pageContext":{"slug":"/tag/","limit":6,"skip":12,"collectionType":"tags","paginatePostsPage":true,"basePath":"/","services":{"algolia":false,"mailchimp":false,"disqus":false,"graphComment":false,"facebookComment":false},"siteUrl":null,"mobileMenu":{"title":"Topics","items":[{"name":"Data Structure","slug":"/category/data-structure/"},{"name":"Java","slug":"/category/java/"},{"name":"OS","slug":"/category/os/"},{"name":"Python","slug":"/category/python/"},{"name":"Web","slug":"/category/web/"}]},"darkMode":true,"includeExcerpt":true,"includeTimeToRead":true,"includeTableOfContents":true,"imageQuality":75}},
    "staticQueryHashes": ["1992822086","3117598128"]}