{
    "componentChunkName": "component---packages-blog-gatsby-blog-core-src-templates-collection-tag-js",
    "path": "/tag/page/5/",
    "result": {"data":{"collectionInfo":{"id":"70665ba5-93a7-500f-8ec6-3f4d580b2271","name":"#자료구조","slug":"/tag/"},"posts":{"nodes":[],"pageInfo":{"pageCount":3,"hasPreviousPage":true,"hasNextPage":false,"currentPage":5},"totalCount":15}},"pageContext":{"slug":"/tag/","limit":6,"skip":24,"collectionType":"tags","paginatePostsPage":true,"basePath":"/","services":{"algolia":false,"mailchimp":false,"disqus":false,"graphComment":false,"facebookComment":false},"siteUrl":null,"mobileMenu":{"title":"Topics","items":[{"name":"Java","slug":"/category/java/"},{"name":"Data Structure","slug":"/category/data-structure/"},{"name":"Git","slug":"/category/git/"},{"name":"OS","slug":"/category/os/"},{"name":"Python","slug":"/category/python/"},{"name":"Web","slug":"/category/web/"},{"name":"Database","slug":"/category/database/"}]},"darkMode":true,"includeExcerpt":true,"includeTimeToRead":true,"includeTableOfContents":true,"imageQuality":75}},
    "staticQueryHashes": ["1992822086","3117598128"]}