{
    "componentChunkName": "component---packages-blog-gatsby-blog-core-src-templates-posts-js",
    "path": "/page/11/",
    "result": {"data":{"featuredPosts":{"nodes":[]},"recentPosts":{"nodes":[{"id":"6f46510e-151a-5bfd-9ef8-e70611f7e30a","title":"Kotlin - invoke 함수","slug":"/kotlin/invoke-method/","link":null,"excerpt":"정의 Kotlin 에서  invoke…","timeToRead":1,"featured":null,"thumbnailText":null,"date":"May 29, 2023","category":{"id":"a137fa3d-c822-56d6-87c6-c57e5cdc5461","name":"Kotlin","slug":"/category/kotlin/","color":"#e9d8fd","icon":"/static/1de85bbd781531b61bf5a25b83d72d32/default.svg"},"author":{"id":"8100adb3-9ca0-5be9-bf3c-57bf1bc368ca","name":"devfoxstar","slug":"/author/devfoxstar/","title":"Backend Developer","description":"개발자 여우별입니다. devfoxstar@gmail.com","skills":["Kotlin","Java","ASP.NET"],"social":[{"name":"Github","url":"https://github.com/devfoxstar"},{"name":"Site","url":"http://foxstar.me/"}],"thumbnail":{"__typename":"ImageSharp","ImageSharp_small":{"layout":"fixed","placeholder":{"fallback":"data:image/svg+xml,%3csvg%20xmlns='http://www.w3.org/2000/svg'%20width='48'%20height='48'%20viewBox='0%200%2048%2048'%20preserveAspectRatio='none'%3e%3cpath%20d='M7%2022l-1%207c0%206%200%206%202%206s3%200%202%202c0%202-5%203-5%200l-1-1c-2%201-2%206-1%206l1%203c0%204%202%204%202%200%201-3%207-5%207-2l1%202%201%202%206%201c6%200%207%200%208-3%201-2%202-3%205-3s3%200%203%203%200%203%206%203h5v-9h-7c-7%200-8%200-8-2-1-1%200-2%201-2%202%200%203-1%203-7%200-4-1-6-2-7l-1%205v6h-4c-4-1-4-1-4-4%200-5-1-7-4-7s-4%201-4%205c0%205%200%206-5%206H9v-5c0-6-1-7-2-5'%20fill='%23d3d3d3'%20fill-rule='evenodd'/%3e%3c/svg%3e"},"images":{"fallback":{"src":"/static/568992d156ba326baa3c5536bbf7ee4c/a7a66/devfoxstar.png","srcSet":"/static/568992d156ba326baa3c5536bbf7ee4c/a7a66/devfoxstar.png 48w,\n/static/568992d156ba326baa3c5536bbf7ee4c/416a0/devfoxstar.png 96w","sizes":"48px"},"sources":[{"srcSet":"/static/568992d156ba326baa3c5536bbf7ee4c/a3542/devfoxstar.webp 48w,\n/static/568992d156ba326baa3c5536bbf7ee4c/0f66d/devfoxstar.webp 96w","type":"image/webp","sizes":"48px"}]},"width":48,"height":48},"ImageSharp_regular":{"layout":"fixed","placeholder":{"fallback":"data:image/svg+xml,%3csvg%20xmlns='http://www.w3.org/2000/svg'%20width='48'%20height='48'%20viewBox='0%200%2048%2048'%20preserveAspectRatio='none'%3e%3cpath%20d='M7%2022l-1%207c0%206%200%206%202%206s3%200%202%202c0%202-5%203-5%200l-1-1c-2%201-2%206-1%206l1%203c0%204%202%204%202%200%201-3%207-5%207-2l1%202%201%202%206%201c6%200%207%200%208-3%201-2%202-3%205-3s3%200%203%203%200%203%206%203h5v-9h-7c-7%200-8%200-8-2-1-1%200-2%201-2%202%200%203-1%203-7%200-4-1-6-2-7l-1%205v6h-4c-4-1-4-1-4-4%200-5-1-7-4-7s-4%201-4%205c0%205%200%206-5%206H9v-5c0-6-1-7-2-5'%20fill='%23d3d3d3'%20fill-rule='evenodd'/%3e%3c/svg%3e"},"images":{"fallback":{"src":"/static/568992d156ba326baa3c5536bbf7ee4c/46e60/devfoxstar.png","srcSet":"/static/568992d156ba326baa3c5536bbf7ee4c/46e60/devfoxstar.png 150w,\n/static/568992d156ba326baa3c5536bbf7ee4c/d612b/devfoxstar.png 300w","sizes":"150px"},"sources":[{"srcSet":"/static/568992d156ba326baa3c5536bbf7ee4c/ae23d/devfoxstar.webp 150w,\n/static/568992d156ba326baa3c5536bbf7ee4c/bd37b/devfoxstar.webp 300w","type":"image/webp","sizes":"150px"}]},"width":150,"height":150}}},"thumbnail":null},{"id":"60819349-9778-5c6a-ad02-8d65c779534b","title":"Kafka retention.ms (메세지 보관 주기 설정)","slug":"/mq/kafka-retention-ms/","link":null,"excerpt":"보관 주기 Kafka 에서  Message  보관 주기를 설정할 수 있습니다. 기본은…","timeToRead":1,"featured":null,"thumbnailText":null,"date":"May 13, 2023","category":{"id":"c87b95d6-f92e-5c46-aad7-a36a7feb8479","name":"MQ","slug":"/category/mq/","color":"#e9d8fd","icon":"/static/1de85bbd781531b61bf5a25b83d72d32/default.svg"},"author":{"id":"8100adb3-9ca0-5be9-bf3c-57bf1bc368ca","name":"devfoxstar","slug":"/author/devfoxstar/","title":"Backend Developer","description":"개발자 여우별입니다. devfoxstar@gmail.com","skills":["Kotlin","Java","ASP.NET"],"social":[{"name":"Github","url":"https://github.com/devfoxstar"},{"name":"Site","url":"http://foxstar.me/"}],"thumbnail":{"__typename":"ImageSharp","ImageSharp_small":{"layout":"fixed","placeholder":{"fallback":"data:image/svg+xml,%3csvg%20xmlns='http://www.w3.org/2000/svg'%20width='48'%20height='48'%20viewBox='0%200%2048%2048'%20preserveAspectRatio='none'%3e%3cpath%20d='M7%2022l-1%207c0%206%200%206%202%206s3%200%202%202c0%202-5%203-5%200l-1-1c-2%201-2%206-1%206l1%203c0%204%202%204%202%200%201-3%207-5%207-2l1%202%201%202%206%201c6%200%207%200%208-3%201-2%202-3%205-3s3%200%203%203%200%203%206%203h5v-9h-7c-7%200-8%200-8-2-1-1%200-2%201-2%202%200%203-1%203-7%200-4-1-6-2-7l-1%205v6h-4c-4-1-4-1-4-4%200-5-1-7-4-7s-4%201-4%205c0%205%200%206-5%206H9v-5c0-6-1-7-2-5'%20fill='%23d3d3d3'%20fill-rule='evenodd'/%3e%3c/svg%3e"},"images":{"fallback":{"src":"/static/568992d156ba326baa3c5536bbf7ee4c/a7a66/devfoxstar.png","srcSet":"/static/568992d156ba326baa3c5536bbf7ee4c/a7a66/devfoxstar.png 48w,\n/static/568992d156ba326baa3c5536bbf7ee4c/416a0/devfoxstar.png 96w","sizes":"48px"},"sources":[{"srcSet":"/static/568992d156ba326baa3c5536bbf7ee4c/a3542/devfoxstar.webp 48w,\n/static/568992d156ba326baa3c5536bbf7ee4c/0f66d/devfoxstar.webp 96w","type":"image/webp","sizes":"48px"}]},"width":48,"height":48},"ImageSharp_regular":{"layout":"fixed","placeholder":{"fallback":"data:image/svg+xml,%3csvg%20xmlns='http://www.w3.org/2000/svg'%20width='48'%20height='48'%20viewBox='0%200%2048%2048'%20preserveAspectRatio='none'%3e%3cpath%20d='M7%2022l-1%207c0%206%200%206%202%206s3%200%202%202c0%202-5%203-5%200l-1-1c-2%201-2%206-1%206l1%203c0%204%202%204%202%200%201-3%207-5%207-2l1%202%201%202%206%201c6%200%207%200%208-3%201-2%202-3%205-3s3%200%203%203%200%203%206%203h5v-9h-7c-7%200-8%200-8-2-1-1%200-2%201-2%202%200%203-1%203-7%200-4-1-6-2-7l-1%205v6h-4c-4-1-4-1-4-4%200-5-1-7-4-7s-4%201-4%205c0%205%200%206-5%206H9v-5c0-6-1-7-2-5'%20fill='%23d3d3d3'%20fill-rule='evenodd'/%3e%3c/svg%3e"},"images":{"fallback":{"src":"/static/568992d156ba326baa3c5536bbf7ee4c/46e60/devfoxstar.png","srcSet":"/static/568992d156ba326baa3c5536bbf7ee4c/46e60/devfoxstar.png 150w,\n/static/568992d156ba326baa3c5536bbf7ee4c/d612b/devfoxstar.png 300w","sizes":"150px"},"sources":[{"srcSet":"/static/568992d156ba326baa3c5536bbf7ee4c/ae23d/devfoxstar.webp 150w,\n/static/568992d156ba326baa3c5536bbf7ee4c/bd37b/devfoxstar.webp 300w","type":"image/webp","sizes":"150px"}]},"width":150,"height":150}}},"thumbnail":null},{"id":"7695c89e-79ec-57bb-8147-311abc1f0ec8","title":"Java AES 암호화 (128/192/256)","slug":"/java/aes-cipher/","link":null,"excerpt":"Java 에서 자주 쓰는  AES  암호화를 알아보겠습니다. AES 는 양방향으로 복호화가 가능하고, 길이에 따라 복잡도를 높일 수 있습니다.   SecretKey…","timeToRead":1,"featured":null,"thumbnailText":null,"date":"May 06, 2023","category":{"id":"280d89d9-9555-54bc-b87d-881bf24b7d02","name":"Java","slug":"/category/java/","color":"#e9d8fd","icon":"/static/1de85bbd781531b61bf5a25b83d72d32/default.svg"},"author":{"id":"8100adb3-9ca0-5be9-bf3c-57bf1bc368ca","name":"devfoxstar","slug":"/author/devfoxstar/","title":"Backend Developer","description":"개발자 여우별입니다. devfoxstar@gmail.com","skills":["Kotlin","Java","ASP.NET"],"social":[{"name":"Github","url":"https://github.com/devfoxstar"},{"name":"Site","url":"http://foxstar.me/"}],"thumbnail":{"__typename":"ImageSharp","ImageSharp_small":{"layout":"fixed","placeholder":{"fallback":"data:image/svg+xml,%3csvg%20xmlns='http://www.w3.org/2000/svg'%20width='48'%20height='48'%20viewBox='0%200%2048%2048'%20preserveAspectRatio='none'%3e%3cpath%20d='M7%2022l-1%207c0%206%200%206%202%206s3%200%202%202c0%202-5%203-5%200l-1-1c-2%201-2%206-1%206l1%203c0%204%202%204%202%200%201-3%207-5%207-2l1%202%201%202%206%201c6%200%207%200%208-3%201-2%202-3%205-3s3%200%203%203%200%203%206%203h5v-9h-7c-7%200-8%200-8-2-1-1%200-2%201-2%202%200%203-1%203-7%200-4-1-6-2-7l-1%205v6h-4c-4-1-4-1-4-4%200-5-1-7-4-7s-4%201-4%205c0%205%200%206-5%206H9v-5c0-6-1-7-2-5'%20fill='%23d3d3d3'%20fill-rule='evenodd'/%3e%3c/svg%3e"},"images":{"fallback":{"src":"/static/568992d156ba326baa3c5536bbf7ee4c/a7a66/devfoxstar.png","srcSet":"/static/568992d156ba326baa3c5536bbf7ee4c/a7a66/devfoxstar.png 48w,\n/static/568992d156ba326baa3c5536bbf7ee4c/416a0/devfoxstar.png 96w","sizes":"48px"},"sources":[{"srcSet":"/static/568992d156ba326baa3c5536bbf7ee4c/a3542/devfoxstar.webp 48w,\n/static/568992d156ba326baa3c5536bbf7ee4c/0f66d/devfoxstar.webp 96w","type":"image/webp","sizes":"48px"}]},"width":48,"height":48},"ImageSharp_regular":{"layout":"fixed","placeholder":{"fallback":"data:image/svg+xml,%3csvg%20xmlns='http://www.w3.org/2000/svg'%20width='48'%20height='48'%20viewBox='0%200%2048%2048'%20preserveAspectRatio='none'%3e%3cpath%20d='M7%2022l-1%207c0%206%200%206%202%206s3%200%202%202c0%202-5%203-5%200l-1-1c-2%201-2%206-1%206l1%203c0%204%202%204%202%200%201-3%207-5%207-2l1%202%201%202%206%201c6%200%207%200%208-3%201-2%202-3%205-3s3%200%203%203%200%203%206%203h5v-9h-7c-7%200-8%200-8-2-1-1%200-2%201-2%202%200%203-1%203-7%200-4-1-6-2-7l-1%205v6h-4c-4-1-4-1-4-4%200-5-1-7-4-7s-4%201-4%205c0%205%200%206-5%206H9v-5c0-6-1-7-2-5'%20fill='%23d3d3d3'%20fill-rule='evenodd'/%3e%3c/svg%3e"},"images":{"fallback":{"src":"/static/568992d156ba326baa3c5536bbf7ee4c/46e60/devfoxstar.png","srcSet":"/static/568992d156ba326baa3c5536bbf7ee4c/46e60/devfoxstar.png 150w,\n/static/568992d156ba326baa3c5536bbf7ee4c/d612b/devfoxstar.png 300w","sizes":"150px"},"sources":[{"srcSet":"/static/568992d156ba326baa3c5536bbf7ee4c/ae23d/devfoxstar.webp 150w,\n/static/568992d156ba326baa3c5536bbf7ee4c/bd37b/devfoxstar.webp 300w","type":"image/webp","sizes":"150px"}]},"width":150,"height":150}}},"thumbnail":null},{"id":"843174c3-a7ac-5131-9c0e-6374417209f2","title":"java.security.InvalidKeyException:Invalid AES key length (AES 암호화 오류)","slug":"/java/invalid-aes-key-length/","link":null,"excerpt":"오류 Java 에서  AES  암호화를 할때 발생할 수 있는 오류입니다.   아래는 오류 코드입니다.   원인 AES SecretKey 는 특정  byte…","timeToRead":1,"featured":null,"thumbnailText":null,"date":"May 05, 2023","category":{"id":"280d89d9-9555-54bc-b87d-881bf24b7d02","name":"Java","slug":"/category/java/","color":"#e9d8fd","icon":"/static/1de85bbd781531b61bf5a25b83d72d32/default.svg"},"author":{"id":"8100adb3-9ca0-5be9-bf3c-57bf1bc368ca","name":"devfoxstar","slug":"/author/devfoxstar/","title":"Backend Developer","description":"개발자 여우별입니다. devfoxstar@gmail.com","skills":["Kotlin","Java","ASP.NET"],"social":[{"name":"Github","url":"https://github.com/devfoxstar"},{"name":"Site","url":"http://foxstar.me/"}],"thumbnail":{"__typename":"ImageSharp","ImageSharp_small":{"layout":"fixed","placeholder":{"fallback":"data:image/svg+xml,%3csvg%20xmlns='http://www.w3.org/2000/svg'%20width='48'%20height='48'%20viewBox='0%200%2048%2048'%20preserveAspectRatio='none'%3e%3cpath%20d='M7%2022l-1%207c0%206%200%206%202%206s3%200%202%202c0%202-5%203-5%200l-1-1c-2%201-2%206-1%206l1%203c0%204%202%204%202%200%201-3%207-5%207-2l1%202%201%202%206%201c6%200%207%200%208-3%201-2%202-3%205-3s3%200%203%203%200%203%206%203h5v-9h-7c-7%200-8%200-8-2-1-1%200-2%201-2%202%200%203-1%203-7%200-4-1-6-2-7l-1%205v6h-4c-4-1-4-1-4-4%200-5-1-7-4-7s-4%201-4%205c0%205%200%206-5%206H9v-5c0-6-1-7-2-5'%20fill='%23d3d3d3'%20fill-rule='evenodd'/%3e%3c/svg%3e"},"images":{"fallback":{"src":"/static/568992d156ba326baa3c5536bbf7ee4c/a7a66/devfoxstar.png","srcSet":"/static/568992d156ba326baa3c5536bbf7ee4c/a7a66/devfoxstar.png 48w,\n/static/568992d156ba326baa3c5536bbf7ee4c/416a0/devfoxstar.png 96w","sizes":"48px"},"sources":[{"srcSet":"/static/568992d156ba326baa3c5536bbf7ee4c/a3542/devfoxstar.webp 48w,\n/static/568992d156ba326baa3c5536bbf7ee4c/0f66d/devfoxstar.webp 96w","type":"image/webp","sizes":"48px"}]},"width":48,"height":48},"ImageSharp_regular":{"layout":"fixed","placeholder":{"fallback":"data:image/svg+xml,%3csvg%20xmlns='http://www.w3.org/2000/svg'%20width='48'%20height='48'%20viewBox='0%200%2048%2048'%20preserveAspectRatio='none'%3e%3cpath%20d='M7%2022l-1%207c0%206%200%206%202%206s3%200%202%202c0%202-5%203-5%200l-1-1c-2%201-2%206-1%206l1%203c0%204%202%204%202%200%201-3%207-5%207-2l1%202%201%202%206%201c6%200%207%200%208-3%201-2%202-3%205-3s3%200%203%203%200%203%206%203h5v-9h-7c-7%200-8%200-8-2-1-1%200-2%201-2%202%200%203-1%203-7%200-4-1-6-2-7l-1%205v6h-4c-4-1-4-1-4-4%200-5-1-7-4-7s-4%201-4%205c0%205%200%206-5%206H9v-5c0-6-1-7-2-5'%20fill='%23d3d3d3'%20fill-rule='evenodd'/%3e%3c/svg%3e"},"images":{"fallback":{"src":"/static/568992d156ba326baa3c5536bbf7ee4c/46e60/devfoxstar.png","srcSet":"/static/568992d156ba326baa3c5536bbf7ee4c/46e60/devfoxstar.png 150w,\n/static/568992d156ba326baa3c5536bbf7ee4c/d612b/devfoxstar.png 300w","sizes":"150px"},"sources":[{"srcSet":"/static/568992d156ba326baa3c5536bbf7ee4c/ae23d/devfoxstar.webp 150w,\n/static/568992d156ba326baa3c5536bbf7ee4c/bd37b/devfoxstar.webp 300w","type":"image/webp","sizes":"150px"}]},"width":150,"height":150}}},"thumbnail":null},{"id":"25798ce6-3d82-5fa4-a8b7-478f6cd627ad","title":"Unsupported major.minor version 52.0 (Java Jar 실행 오류)","slug":"/java/unsupported-major-minor-version/","link":null,"excerpt":"오류 Java 에서 특정  Jar  파일을 실행할 때 오류가 발생했습니다.   원인 Jar…","timeToRead":1,"featured":null,"thumbnailText":null,"date":"May 04, 2023","category":{"id":"280d89d9-9555-54bc-b87d-881bf24b7d02","name":"Java","slug":"/category/java/","color":"#e9d8fd","icon":"/static/1de85bbd781531b61bf5a25b83d72d32/default.svg"},"author":{"id":"8100adb3-9ca0-5be9-bf3c-57bf1bc368ca","name":"devfoxstar","slug":"/author/devfoxstar/","title":"Backend Developer","description":"개발자 여우별입니다. devfoxstar@gmail.com","skills":["Kotlin","Java","ASP.NET"],"social":[{"name":"Github","url":"https://github.com/devfoxstar"},{"name":"Site","url":"http://foxstar.me/"}],"thumbnail":{"__typename":"ImageSharp","ImageSharp_small":{"layout":"fixed","placeholder":{"fallback":"data:image/svg+xml,%3csvg%20xmlns='http://www.w3.org/2000/svg'%20width='48'%20height='48'%20viewBox='0%200%2048%2048'%20preserveAspectRatio='none'%3e%3cpath%20d='M7%2022l-1%207c0%206%200%206%202%206s3%200%202%202c0%202-5%203-5%200l-1-1c-2%201-2%206-1%206l1%203c0%204%202%204%202%200%201-3%207-5%207-2l1%202%201%202%206%201c6%200%207%200%208-3%201-2%202-3%205-3s3%200%203%203%200%203%206%203h5v-9h-7c-7%200-8%200-8-2-1-1%200-2%201-2%202%200%203-1%203-7%200-4-1-6-2-7l-1%205v6h-4c-4-1-4-1-4-4%200-5-1-7-4-7s-4%201-4%205c0%205%200%206-5%206H9v-5c0-6-1-7-2-5'%20fill='%23d3d3d3'%20fill-rule='evenodd'/%3e%3c/svg%3e"},"images":{"fallback":{"src":"/static/568992d156ba326baa3c5536bbf7ee4c/a7a66/devfoxstar.png","srcSet":"/static/568992d156ba326baa3c5536bbf7ee4c/a7a66/devfoxstar.png 48w,\n/static/568992d156ba326baa3c5536bbf7ee4c/416a0/devfoxstar.png 96w","sizes":"48px"},"sources":[{"srcSet":"/static/568992d156ba326baa3c5536bbf7ee4c/a3542/devfoxstar.webp 48w,\n/static/568992d156ba326baa3c5536bbf7ee4c/0f66d/devfoxstar.webp 96w","type":"image/webp","sizes":"48px"}]},"width":48,"height":48},"ImageSharp_regular":{"layout":"fixed","placeholder":{"fallback":"data:image/svg+xml,%3csvg%20xmlns='http://www.w3.org/2000/svg'%20width='48'%20height='48'%20viewBox='0%200%2048%2048'%20preserveAspectRatio='none'%3e%3cpath%20d='M7%2022l-1%207c0%206%200%206%202%206s3%200%202%202c0%202-5%203-5%200l-1-1c-2%201-2%206-1%206l1%203c0%204%202%204%202%200%201-3%207-5%207-2l1%202%201%202%206%201c6%200%207%200%208-3%201-2%202-3%205-3s3%200%203%203%200%203%206%203h5v-9h-7c-7%200-8%200-8-2-1-1%200-2%201-2%202%200%203-1%203-7%200-4-1-6-2-7l-1%205v6h-4c-4-1-4-1-4-4%200-5-1-7-4-7s-4%201-4%205c0%205%200%206-5%206H9v-5c0-6-1-7-2-5'%20fill='%23d3d3d3'%20fill-rule='evenodd'/%3e%3c/svg%3e"},"images":{"fallback":{"src":"/static/568992d156ba326baa3c5536bbf7ee4c/46e60/devfoxstar.png","srcSet":"/static/568992d156ba326baa3c5536bbf7ee4c/46e60/devfoxstar.png 150w,\n/static/568992d156ba326baa3c5536bbf7ee4c/d612b/devfoxstar.png 300w","sizes":"150px"},"sources":[{"srcSet":"/static/568992d156ba326baa3c5536bbf7ee4c/ae23d/devfoxstar.webp 150w,\n/static/568992d156ba326baa3c5536bbf7ee4c/bd37b/devfoxstar.webp 300w","type":"image/webp","sizes":"150px"}]},"width":150,"height":150}}},"thumbnail":null},{"id":"6a811802-9779-5704-a755-082915c2d3de","title":"private static final vs private final","slug":"/java/private-static-final/","link":null,"excerpt":"private private 은 해당 클래스 안에서만 자원이 공유됩니다. 그래서 보안이나 안정성 혹은 클래스 안에서만 사용할 때 선언합니다.   static static…","timeToRead":1,"featured":null,"thumbnailText":null,"date":"April 29, 2023","category":{"id":"280d89d9-9555-54bc-b87d-881bf24b7d02","name":"Java","slug":"/category/java/","color":"#e9d8fd","icon":"/static/1de85bbd781531b61bf5a25b83d72d32/default.svg"},"author":{"id":"8100adb3-9ca0-5be9-bf3c-57bf1bc368ca","name":"devfoxstar","slug":"/author/devfoxstar/","title":"Backend Developer","description":"개발자 여우별입니다. devfoxstar@gmail.com","skills":["Kotlin","Java","ASP.NET"],"social":[{"name":"Github","url":"https://github.com/devfoxstar"},{"name":"Site","url":"http://foxstar.me/"}],"thumbnail":{"__typename":"ImageSharp","ImageSharp_small":{"layout":"fixed","placeholder":{"fallback":"data:image/svg+xml,%3csvg%20xmlns='http://www.w3.org/2000/svg'%20width='48'%20height='48'%20viewBox='0%200%2048%2048'%20preserveAspectRatio='none'%3e%3cpath%20d='M7%2022l-1%207c0%206%200%206%202%206s3%200%202%202c0%202-5%203-5%200l-1-1c-2%201-2%206-1%206l1%203c0%204%202%204%202%200%201-3%207-5%207-2l1%202%201%202%206%201c6%200%207%200%208-3%201-2%202-3%205-3s3%200%203%203%200%203%206%203h5v-9h-7c-7%200-8%200-8-2-1-1%200-2%201-2%202%200%203-1%203-7%200-4-1-6-2-7l-1%205v6h-4c-4-1-4-1-4-4%200-5-1-7-4-7s-4%201-4%205c0%205%200%206-5%206H9v-5c0-6-1-7-2-5'%20fill='%23d3d3d3'%20fill-rule='evenodd'/%3e%3c/svg%3e"},"images":{"fallback":{"src":"/static/568992d156ba326baa3c5536bbf7ee4c/a7a66/devfoxstar.png","srcSet":"/static/568992d156ba326baa3c5536bbf7ee4c/a7a66/devfoxstar.png 48w,\n/static/568992d156ba326baa3c5536bbf7ee4c/416a0/devfoxstar.png 96w","sizes":"48px"},"sources":[{"srcSet":"/static/568992d156ba326baa3c5536bbf7ee4c/a3542/devfoxstar.webp 48w,\n/static/568992d156ba326baa3c5536bbf7ee4c/0f66d/devfoxstar.webp 96w","type":"image/webp","sizes":"48px"}]},"width":48,"height":48},"ImageSharp_regular":{"layout":"fixed","placeholder":{"fallback":"data:image/svg+xml,%3csvg%20xmlns='http://www.w3.org/2000/svg'%20width='48'%20height='48'%20viewBox='0%200%2048%2048'%20preserveAspectRatio='none'%3e%3cpath%20d='M7%2022l-1%207c0%206%200%206%202%206s3%200%202%202c0%202-5%203-5%200l-1-1c-2%201-2%206-1%206l1%203c0%204%202%204%202%200%201-3%207-5%207-2l1%202%201%202%206%201c6%200%207%200%208-3%201-2%202-3%205-3s3%200%203%203%200%203%206%203h5v-9h-7c-7%200-8%200-8-2-1-1%200-2%201-2%202%200%203-1%203-7%200-4-1-6-2-7l-1%205v6h-4c-4-1-4-1-4-4%200-5-1-7-4-7s-4%201-4%205c0%205%200%206-5%206H9v-5c0-6-1-7-2-5'%20fill='%23d3d3d3'%20fill-rule='evenodd'/%3e%3c/svg%3e"},"images":{"fallback":{"src":"/static/568992d156ba326baa3c5536bbf7ee4c/46e60/devfoxstar.png","srcSet":"/static/568992d156ba326baa3c5536bbf7ee4c/46e60/devfoxstar.png 150w,\n/static/568992d156ba326baa3c5536bbf7ee4c/d612b/devfoxstar.png 300w","sizes":"150px"},"sources":[{"srcSet":"/static/568992d156ba326baa3c5536bbf7ee4c/ae23d/devfoxstar.webp 150w,\n/static/568992d156ba326baa3c5536bbf7ee4c/bd37b/devfoxstar.webp 300w","type":"image/webp","sizes":"150px"}]},"width":150,"height":150}}},"thumbnail":null}]},"paginatedPosts":{"nodes":[{"id":"c89e15df-ceea-527f-934c-52d5739f61f7","title":"Gatsby로 GitHub Pages 블로그 만들기","slug":"/web/github-pages-gatsby/","link":null,"excerpt":"GitHub Pages는 GitHub…","timeToRead":1,"featured":null,"thumbnailText":null,"date":"October 15, 2021","category":{"id":"3114be4f-d302-5f77-b8ed-55ab9daad0ef","name":"Web","slug":"/category/web/","color":"#e9d8fd","icon":"/static/1de85bbd781531b61bf5a25b83d72d32/default.svg"},"author":{"id":"8100adb3-9ca0-5be9-bf3c-57bf1bc368ca","name":"devfoxstar","slug":"/author/devfoxstar/","title":"Backend Developer","description":"개발자 여우별입니다. devfoxstar@gmail.com","skills":["Kotlin","Java","ASP.NET"],"social":[{"name":"Github","url":"https://github.com/devfoxstar"},{"name":"Site","url":"http://foxstar.me/"}],"thumbnail":{"__typename":"ImageSharp","ImageSharp_small":{"layout":"fixed","placeholder":{"fallback":"data:image/svg+xml,%3csvg%20xmlns='http://www.w3.org/2000/svg'%20width='48'%20height='48'%20viewBox='0%200%2048%2048'%20preserveAspectRatio='none'%3e%3cpath%20d='M7%2022l-1%207c0%206%200%206%202%206s3%200%202%202c0%202-5%203-5%200l-1-1c-2%201-2%206-1%206l1%203c0%204%202%204%202%200%201-3%207-5%207-2l1%202%201%202%206%201c6%200%207%200%208-3%201-2%202-3%205-3s3%200%203%203%200%203%206%203h5v-9h-7c-7%200-8%200-8-2-1-1%200-2%201-2%202%200%203-1%203-7%200-4-1-6-2-7l-1%205v6h-4c-4-1-4-1-4-4%200-5-1-7-4-7s-4%201-4%205c0%205%200%206-5%206H9v-5c0-6-1-7-2-5'%20fill='%23d3d3d3'%20fill-rule='evenodd'/%3e%3c/svg%3e"},"images":{"fallback":{"src":"/static/568992d156ba326baa3c5536bbf7ee4c/a7a66/devfoxstar.png","srcSet":"/static/568992d156ba326baa3c5536bbf7ee4c/a7a66/devfoxstar.png 48w,\n/static/568992d156ba326baa3c5536bbf7ee4c/416a0/devfoxstar.png 96w","sizes":"48px"},"sources":[{"srcSet":"/static/568992d156ba326baa3c5536bbf7ee4c/a3542/devfoxstar.webp 48w,\n/static/568992d156ba326baa3c5536bbf7ee4c/0f66d/devfoxstar.webp 96w","type":"image/webp","sizes":"48px"}]},"width":48,"height":48},"ImageSharp_regular":{"layout":"fixed","placeholder":{"fallback":"data:image/svg+xml,%3csvg%20xmlns='http://www.w3.org/2000/svg'%20width='48'%20height='48'%20viewBox='0%200%2048%2048'%20preserveAspectRatio='none'%3e%3cpath%20d='M7%2022l-1%207c0%206%200%206%202%206s3%200%202%202c0%202-5%203-5%200l-1-1c-2%201-2%206-1%206l1%203c0%204%202%204%202%200%201-3%207-5%207-2l1%202%201%202%206%201c6%200%207%200%208-3%201-2%202-3%205-3s3%200%203%203%200%203%206%203h5v-9h-7c-7%200-8%200-8-2-1-1%200-2%201-2%202%200%203-1%203-7%200-4-1-6-2-7l-1%205v6h-4c-4-1-4-1-4-4%200-5-1-7-4-7s-4%201-4%205c0%205%200%206-5%206H9v-5c0-6-1-7-2-5'%20fill='%23d3d3d3'%20fill-rule='evenodd'/%3e%3c/svg%3e"},"images":{"fallback":{"src":"/static/568992d156ba326baa3c5536bbf7ee4c/46e60/devfoxstar.png","srcSet":"/static/568992d156ba326baa3c5536bbf7ee4c/46e60/devfoxstar.png 150w,\n/static/568992d156ba326baa3c5536bbf7ee4c/d612b/devfoxstar.png 300w","sizes":"150px"},"sources":[{"srcSet":"/static/568992d156ba326baa3c5536bbf7ee4c/ae23d/devfoxstar.webp 150w,\n/static/568992d156ba326baa3c5536bbf7ee4c/bd37b/devfoxstar.webp 300w","type":"image/webp","sizes":"150px"}]},"width":150,"height":150}}},"thumbnail":null}],"pageInfo":{"pageCount":11,"hasPreviousPage":true,"hasNextPage":false,"currentPage":11},"totalCount":101}},"pageContext":{"limit":10,"skip":100,"paginatePostsPage":true,"basePath":"/","services":{"algolia":false,"mailchimp":false,"disqus":false,"graphComment":false,"facebookComment":false},"siteUrl":null,"mobileMenu":{"title":"Topics","items":[{"name":"Database","slug":"/category/database/"},{"name":"DesignPattern","slug":"/category/designpattern/"},{"name":"Development","slug":"/category/development/"},{"name":"Data Structure","slug":"/category/data-structure/"},{"name":"Git","slug":"/category/git/"},{"name":"Java","slug":"/category/java/"},{"name":"Kotlin","slug":"/category/kotlin/"},{"name":"Middleware","slug":"/category/middleware/"},{"name":"MQ","slug":"/category/mq/"},{"name":"OS","slug":"/category/os/"},{"name":"PHP","slug":"/category/php/"},{"name":"Python","slug":"/category/python/"},{"name":"Test","slug":"/category/test/"},{"name":"Spring","slug":"/category/spring/"},{"name":"Web","slug":"/category/web/"}]},"darkMode":true,"includeExcerpt":true,"includeTimeToRead":true,"includeTableOfContents":true,"imageQuality":75}},
    "staticQueryHashes": ["1992822086","3117598128","3138140905"]}