{
    "componentChunkName": "component---packages-blog-gatsby-blog-core-src-templates-collection-category-js",
    "path": "/category/data-structure/page/2/",
    "result": {"data":{"collectionInfo":{"id":"f9309317-0bc7-597f-8a53-8f05ff59099f","name":"Data Structure","slug":"/category/data-structure/","description":"자료 구조를 알아보겠습니다."},"posts":{"nodes":[{"id":"2d2dfcac-779e-5ab4-ad21-92aa87ae8354","title":"HashMap에서 하나의 키에 다중 값을 넣고 싶을 때","slug":"/datastructure/hashmap-multiple-values/","link":null,"excerpt":"HashMap 은 Map 인터페이스를 구현한 Map 컬렉션입니다.\n Key-Value  쌍으로 저장되며, 자주 사용하는 자료 구조 중에 하나입니다. 데이터를 저장할 때, Key…","timeToRead":1,"featured":null,"thumbnailText":null,"date":"February 02, 2022","category":{"id":"f9309317-0bc7-597f-8a53-8f05ff59099f","name":"Data Structure","slug":"/category/data-structure/","color":"#e9d8fd","icon":"/static/1de85bbd781531b61bf5a25b83d72d32/default.svg"},"author":{"id":"3b5f388b-9ea1-5da8-9e20-42dd78ddb7ba","name":"devfoxstar","slug":"/author/devfoxstar/","title":"Web Developer","description":"웹개발자 여우별입니다. devfoxstar@gmail.com","skills":["Java","ASP.NET","Python","React"],"social":[{"name":"Github","url":"https://github.com/devfoxstar"},{"name":"Site","url":"http://foxstar.me/"}],"thumbnail":{"__typename":"ImageSharp","ImageSharp_small":{"layout":"fixed","placeholder":{"fallback":"data:image/svg+xml,%3csvg%20xmlns='http://www.w3.org/2000/svg'%20width='48'%20height='48'%20viewBox='0%200%2048%2048'%20preserveAspectRatio='none'%3e%3cpath%20d='M7%2022l-1%207c0%206%200%206%202%206s3%200%202%202c0%202-5%203-5%200l-1-1c-2%201-2%206-1%206l1%203c0%204%202%204%202%200%201-3%207-5%207-2l1%202%201%202%206%201c6%200%207%200%208-3%201-2%202-3%205-3s3%200%203%203%200%203%206%203h5v-9h-7c-7%200-8%200-8-2-1-1%200-2%201-2%202%200%203-1%203-7%200-4-1-6-2-7l-1%205v6h-4c-4-1-4-1-4-4%200-5-1-7-4-7s-4%201-4%205c0%205%200%206-5%206H9v-5c0-6-1-7-2-5'%20fill='%23d3d3d3'%20fill-rule='evenodd'/%3e%3c/svg%3e"},"images":{"fallback":{"src":"/static/568992d156ba326baa3c5536bbf7ee4c/a7a66/devfoxstar.png","srcSet":"/static/568992d156ba326baa3c5536bbf7ee4c/a7a66/devfoxstar.png 48w,\n/static/568992d156ba326baa3c5536bbf7ee4c/416a0/devfoxstar.png 96w","sizes":"48px"},"sources":[{"srcSet":"/static/568992d156ba326baa3c5536bbf7ee4c/a3542/devfoxstar.webp 48w,\n/static/568992d156ba326baa3c5536bbf7ee4c/0f66d/devfoxstar.webp 96w","type":"image/webp","sizes":"48px"}]},"width":48,"height":48},"ImageSharp_regular":{"layout":"fixed","placeholder":{"fallback":"data:image/svg+xml,%3csvg%20xmlns='http://www.w3.org/2000/svg'%20width='48'%20height='48'%20viewBox='0%200%2048%2048'%20preserveAspectRatio='none'%3e%3cpath%20d='M7%2022l-1%207c0%206%200%206%202%206s3%200%202%202c0%202-5%203-5%200l-1-1c-2%201-2%206-1%206l1%203c0%204%202%204%202%200%201-3%207-5%207-2l1%202%201%202%206%201c6%200%207%200%208-3%201-2%202-3%205-3s3%200%203%203%200%203%206%203h5v-9h-7c-7%200-8%200-8-2-1-1%200-2%201-2%202%200%203-1%203-7%200-4-1-6-2-7l-1%205v6h-4c-4-1-4-1-4-4%200-5-1-7-4-7s-4%201-4%205c0%205%200%206-5%206H9v-5c0-6-1-7-2-5'%20fill='%23d3d3d3'%20fill-rule='evenodd'/%3e%3c/svg%3e"},"images":{"fallback":{"src":"/static/568992d156ba326baa3c5536bbf7ee4c/46e60/devfoxstar.png","srcSet":"/static/568992d156ba326baa3c5536bbf7ee4c/46e60/devfoxstar.png 150w,\n/static/568992d156ba326baa3c5536bbf7ee4c/d612b/devfoxstar.png 300w","sizes":"150px"},"sources":[{"srcSet":"/static/568992d156ba326baa3c5536bbf7ee4c/ae23d/devfoxstar.webp 150w,\n/static/568992d156ba326baa3c5536bbf7ee4c/bd37b/devfoxstar.webp 300w","type":"image/webp","sizes":"150px"}]},"width":150,"height":150}}},"thumbnail":null}],"pageInfo":{"pageCount":2,"hasPreviousPage":true,"hasNextPage":false,"currentPage":2},"totalCount":7}},"pageContext":{"slug":"/category/data-structure/","limit":6,"skip":6,"collectionType":"category","paginatePostsPage":true,"basePath":"/","services":{"algolia":false,"mailchimp":false,"disqus":false,"graphComment":false,"facebookComment":false},"siteUrl":null,"mobileMenu":{"title":"Topics","items":[{"name":"Java","slug":"/category/java/"},{"name":"OS","slug":"/category/os/"},{"name":"Data Structure","slug":"/category/data-structure/"},{"name":"Python","slug":"/category/python/"},{"name":"Web","slug":"/category/web/"}]},"darkMode":true,"includeExcerpt":true,"includeTimeToRead":true,"includeTableOfContents":true,"imageQuality":75}},
    "staticQueryHashes": ["1992822086","3117598128"]}