{
    "componentChunkName": "component---packages-blog-gatsby-blog-core-src-templates-collection-category-js",
    "path": "/category/web/page/2/",
    "result": {"data":{"collectionInfo":{"id":"3114be4f-d302-5f77-b8ed-55ab9daad0ef","name":"Web","slug":"/category/web/","description":"웹에서 기본이 되는 내용입니다."},"posts":{"nodes":[{"id":"321947c0-38d7-53b1-8f96-483a4c3a526c","title":"MobaXterm private key 사용하기 (AWS EC2 PEM Key 접속)","slug":"/web/mobaxterm-ssh-key-pem/","link":null,"excerpt":"AWS에서 EC2 인스턴스를 만들고, SSH로 접속할 때  PEM Key 를 사용합니다. 최근에 자주 사용 중인  MobaXterm…","timeToRead":1,"featured":null,"thumbnailText":null,"date":"July 18, 2022","category":{"id":"3114be4f-d302-5f77-b8ed-55ab9daad0ef","name":"Web","slug":"/category/web/","color":"#e9d8fd","icon":"/static/1de85bbd781531b61bf5a25b83d72d32/default.svg"},"author":{"id":"8100adb3-9ca0-5be9-bf3c-57bf1bc368ca","name":"devfoxstar","slug":"/author/devfoxstar/","title":"Backend Developer","description":"개발자 여우별입니다. devfoxstar@gmail.com","skills":["Kotlin","Java","ASP.NET"],"social":[{"name":"Github","url":"https://github.com/devfoxstar"},{"name":"Site","url":"http://foxstar.me/"}],"thumbnail":{"__typename":"ImageSharp","ImageSharp_small":{"layout":"fixed","placeholder":{"fallback":"data:image/svg+xml,%3csvg%20xmlns='http://www.w3.org/2000/svg'%20width='48'%20height='48'%20viewBox='0%200%2048%2048'%20preserveAspectRatio='none'%3e%3cpath%20d='M7%2022l-1%207c0%206%200%206%202%206s3%200%202%202c0%202-5%203-5%200l-1-1c-2%201-2%206-1%206l1%203c0%204%202%204%202%200%201-3%207-5%207-2l1%202%201%202%206%201c6%200%207%200%208-3%201-2%202-3%205-3s3%200%203%203%200%203%206%203h5v-9h-7c-7%200-8%200-8-2-1-1%200-2%201-2%202%200%203-1%203-7%200-4-1-6-2-7l-1%205v6h-4c-4-1-4-1-4-4%200-5-1-7-4-7s-4%201-4%205c0%205%200%206-5%206H9v-5c0-6-1-7-2-5'%20fill='%23d3d3d3'%20fill-rule='evenodd'/%3e%3c/svg%3e"},"images":{"fallback":{"src":"/static/568992d156ba326baa3c5536bbf7ee4c/a7a66/devfoxstar.png","srcSet":"/static/568992d156ba326baa3c5536bbf7ee4c/a7a66/devfoxstar.png 48w,\n/static/568992d156ba326baa3c5536bbf7ee4c/416a0/devfoxstar.png 96w","sizes":"48px"},"sources":[{"srcSet":"/static/568992d156ba326baa3c5536bbf7ee4c/a3542/devfoxstar.webp 48w,\n/static/568992d156ba326baa3c5536bbf7ee4c/0f66d/devfoxstar.webp 96w","type":"image/webp","sizes":"48px"}]},"width":48,"height":48},"ImageSharp_regular":{"layout":"fixed","placeholder":{"fallback":"data:image/svg+xml,%3csvg%20xmlns='http://www.w3.org/2000/svg'%20width='48'%20height='48'%20viewBox='0%200%2048%2048'%20preserveAspectRatio='none'%3e%3cpath%20d='M7%2022l-1%207c0%206%200%206%202%206s3%200%202%202c0%202-5%203-5%200l-1-1c-2%201-2%206-1%206l1%203c0%204%202%204%202%200%201-3%207-5%207-2l1%202%201%202%206%201c6%200%207%200%208-3%201-2%202-3%205-3s3%200%203%203%200%203%206%203h5v-9h-7c-7%200-8%200-8-2-1-1%200-2%201-2%202%200%203-1%203-7%200-4-1-6-2-7l-1%205v6h-4c-4-1-4-1-4-4%200-5-1-7-4-7s-4%201-4%205c0%205%200%206-5%206H9v-5c0-6-1-7-2-5'%20fill='%23d3d3d3'%20fill-rule='evenodd'/%3e%3c/svg%3e"},"images":{"fallback":{"src":"/static/568992d156ba326baa3c5536bbf7ee4c/46e60/devfoxstar.png","srcSet":"/static/568992d156ba326baa3c5536bbf7ee4c/46e60/devfoxstar.png 150w,\n/static/568992d156ba326baa3c5536bbf7ee4c/d612b/devfoxstar.png 300w","sizes":"150px"},"sources":[{"srcSet":"/static/568992d156ba326baa3c5536bbf7ee4c/ae23d/devfoxstar.webp 150w,\n/static/568992d156ba326baa3c5536bbf7ee4c/bd37b/devfoxstar.webp 300w","type":"image/webp","sizes":"150px"}]},"width":150,"height":150}}},"thumbnail":null},{"id":"1c606019-ec36-5626-93a2-83ba16edb8b7","title":"NGINX 403 Forbidden (웹서버 403 오류)","slug":"/web/mac-nginx-403-forbidden/","link":null,"excerpt":"웹서버를 세팅하면 다양한 오류를 마주합니다. 그 중  NGINX 에서  403 Forbidden  오류는 흔하게 볼 수 있습니다.   40…","timeToRead":1,"featured":null,"thumbnailText":null,"date":"July 04, 2022","category":{"id":"3114be4f-d302-5f77-b8ed-55ab9daad0ef","name":"Web","slug":"/category/web/","color":"#e9d8fd","icon":"/static/1de85bbd781531b61bf5a25b83d72d32/default.svg"},"author":{"id":"8100adb3-9ca0-5be9-bf3c-57bf1bc368ca","name":"devfoxstar","slug":"/author/devfoxstar/","title":"Backend Developer","description":"개발자 여우별입니다. devfoxstar@gmail.com","skills":["Kotlin","Java","ASP.NET"],"social":[{"name":"Github","url":"https://github.com/devfoxstar"},{"name":"Site","url":"http://foxstar.me/"}],"thumbnail":{"__typename":"ImageSharp","ImageSharp_small":{"layout":"fixed","placeholder":{"fallback":"data:image/svg+xml,%3csvg%20xmlns='http://www.w3.org/2000/svg'%20width='48'%20height='48'%20viewBox='0%200%2048%2048'%20preserveAspectRatio='none'%3e%3cpath%20d='M7%2022l-1%207c0%206%200%206%202%206s3%200%202%202c0%202-5%203-5%200l-1-1c-2%201-2%206-1%206l1%203c0%204%202%204%202%200%201-3%207-5%207-2l1%202%201%202%206%201c6%200%207%200%208-3%201-2%202-3%205-3s3%200%203%203%200%203%206%203h5v-9h-7c-7%200-8%200-8-2-1-1%200-2%201-2%202%200%203-1%203-7%200-4-1-6-2-7l-1%205v6h-4c-4-1-4-1-4-4%200-5-1-7-4-7s-4%201-4%205c0%205%200%206-5%206H9v-5c0-6-1-7-2-5'%20fill='%23d3d3d3'%20fill-rule='evenodd'/%3e%3c/svg%3e"},"images":{"fallback":{"src":"/static/568992d156ba326baa3c5536bbf7ee4c/a7a66/devfoxstar.png","srcSet":"/static/568992d156ba326baa3c5536bbf7ee4c/a7a66/devfoxstar.png 48w,\n/static/568992d156ba326baa3c5536bbf7ee4c/416a0/devfoxstar.png 96w","sizes":"48px"},"sources":[{"srcSet":"/static/568992d156ba326baa3c5536bbf7ee4c/a3542/devfoxstar.webp 48w,\n/static/568992d156ba326baa3c5536bbf7ee4c/0f66d/devfoxstar.webp 96w","type":"image/webp","sizes":"48px"}]},"width":48,"height":48},"ImageSharp_regular":{"layout":"fixed","placeholder":{"fallback":"data:image/svg+xml,%3csvg%20xmlns='http://www.w3.org/2000/svg'%20width='48'%20height='48'%20viewBox='0%200%2048%2048'%20preserveAspectRatio='none'%3e%3cpath%20d='M7%2022l-1%207c0%206%200%206%202%206s3%200%202%202c0%202-5%203-5%200l-1-1c-2%201-2%206-1%206l1%203c0%204%202%204%202%200%201-3%207-5%207-2l1%202%201%202%206%201c6%200%207%200%208-3%201-2%202-3%205-3s3%200%203%203%200%203%206%203h5v-9h-7c-7%200-8%200-8-2-1-1%200-2%201-2%202%200%203-1%203-7%200-4-1-6-2-7l-1%205v6h-4c-4-1-4-1-4-4%200-5-1-7-4-7s-4%201-4%205c0%205%200%206-5%206H9v-5c0-6-1-7-2-5'%20fill='%23d3d3d3'%20fill-rule='evenodd'/%3e%3c/svg%3e"},"images":{"fallback":{"src":"/static/568992d156ba326baa3c5536bbf7ee4c/46e60/devfoxstar.png","srcSet":"/static/568992d156ba326baa3c5536bbf7ee4c/46e60/devfoxstar.png 150w,\n/static/568992d156ba326baa3c5536bbf7ee4c/d612b/devfoxstar.png 300w","sizes":"150px"},"sources":[{"srcSet":"/static/568992d156ba326baa3c5536bbf7ee4c/ae23d/devfoxstar.webp 150w,\n/static/568992d156ba326baa3c5536bbf7ee4c/bd37b/devfoxstar.webp 300w","type":"image/webp","sizes":"150px"}]},"width":150,"height":150}}},"thumbnail":null},{"id":"3a9f6de6-d996-5e2e-ad30-5c86b7fd7d06","title":"Gatsby에 애드센스 ads.txt 파일 적용하기","slug":"/web/gatsby-adsense-ads/","link":null,"excerpt":"Gatsby  블로그에 애드센스를 적용하면, 인벤토리 관리를 위해서  ads.txt  파일을 루트에 업로드 해야 합니다. 그래서 로컬이나 서버의  public…","timeToRead":1,"featured":null,"thumbnailText":null,"date":"June 15, 2022","category":{"id":"3114be4f-d302-5f77-b8ed-55ab9daad0ef","name":"Web","slug":"/category/web/","color":"#e9d8fd","icon":"/static/1de85bbd781531b61bf5a25b83d72d32/default.svg"},"author":{"id":"8100adb3-9ca0-5be9-bf3c-57bf1bc368ca","name":"devfoxstar","slug":"/author/devfoxstar/","title":"Backend Developer","description":"개발자 여우별입니다. devfoxstar@gmail.com","skills":["Kotlin","Java","ASP.NET"],"social":[{"name":"Github","url":"https://github.com/devfoxstar"},{"name":"Site","url":"http://foxstar.me/"}],"thumbnail":{"__typename":"ImageSharp","ImageSharp_small":{"layout":"fixed","placeholder":{"fallback":"data:image/svg+xml,%3csvg%20xmlns='http://www.w3.org/2000/svg'%20width='48'%20height='48'%20viewBox='0%200%2048%2048'%20preserveAspectRatio='none'%3e%3cpath%20d='M7%2022l-1%207c0%206%200%206%202%206s3%200%202%202c0%202-5%203-5%200l-1-1c-2%201-2%206-1%206l1%203c0%204%202%204%202%200%201-3%207-5%207-2l1%202%201%202%206%201c6%200%207%200%208-3%201-2%202-3%205-3s3%200%203%203%200%203%206%203h5v-9h-7c-7%200-8%200-8-2-1-1%200-2%201-2%202%200%203-1%203-7%200-4-1-6-2-7l-1%205v6h-4c-4-1-4-1-4-4%200-5-1-7-4-7s-4%201-4%205c0%205%200%206-5%206H9v-5c0-6-1-7-2-5'%20fill='%23d3d3d3'%20fill-rule='evenodd'/%3e%3c/svg%3e"},"images":{"fallback":{"src":"/static/568992d156ba326baa3c5536bbf7ee4c/a7a66/devfoxstar.png","srcSet":"/static/568992d156ba326baa3c5536bbf7ee4c/a7a66/devfoxstar.png 48w,\n/static/568992d156ba326baa3c5536bbf7ee4c/416a0/devfoxstar.png 96w","sizes":"48px"},"sources":[{"srcSet":"/static/568992d156ba326baa3c5536bbf7ee4c/a3542/devfoxstar.webp 48w,\n/static/568992d156ba326baa3c5536bbf7ee4c/0f66d/devfoxstar.webp 96w","type":"image/webp","sizes":"48px"}]},"width":48,"height":48},"ImageSharp_regular":{"layout":"fixed","placeholder":{"fallback":"data:image/svg+xml,%3csvg%20xmlns='http://www.w3.org/2000/svg'%20width='48'%20height='48'%20viewBox='0%200%2048%2048'%20preserveAspectRatio='none'%3e%3cpath%20d='M7%2022l-1%207c0%206%200%206%202%206s3%200%202%202c0%202-5%203-5%200l-1-1c-2%201-2%206-1%206l1%203c0%204%202%204%202%200%201-3%207-5%207-2l1%202%201%202%206%201c6%200%207%200%208-3%201-2%202-3%205-3s3%200%203%203%200%203%206%203h5v-9h-7c-7%200-8%200-8-2-1-1%200-2%201-2%202%200%203-1%203-7%200-4-1-6-2-7l-1%205v6h-4c-4-1-4-1-4-4%200-5-1-7-4-7s-4%201-4%205c0%205%200%206-5%206H9v-5c0-6-1-7-2-5'%20fill='%23d3d3d3'%20fill-rule='evenodd'/%3e%3c/svg%3e"},"images":{"fallback":{"src":"/static/568992d156ba326baa3c5536bbf7ee4c/46e60/devfoxstar.png","srcSet":"/static/568992d156ba326baa3c5536bbf7ee4c/46e60/devfoxstar.png 150w,\n/static/568992d156ba326baa3c5536bbf7ee4c/d612b/devfoxstar.png 300w","sizes":"150px"},"sources":[{"srcSet":"/static/568992d156ba326baa3c5536bbf7ee4c/ae23d/devfoxstar.webp 150w,\n/static/568992d156ba326baa3c5536bbf7ee4c/bd37b/devfoxstar.webp 300w","type":"image/webp","sizes":"150px"}]},"width":150,"height":150}}},"thumbnail":null},{"id":"48e993d0-011c-5e60-8074-094791d48453","title":"애자일 개발 방법론 (Agile software development)","slug":"/web/agile-development-methodology/","link":null,"excerpt":"…","timeToRead":2,"featured":null,"thumbnailText":null,"date":"June 04, 2022","category":{"id":"3114be4f-d302-5f77-b8ed-55ab9daad0ef","name":"Web","slug":"/category/web/","color":"#e9d8fd","icon":"/static/1de85bbd781531b61bf5a25b83d72d32/default.svg"},"author":{"id":"8100adb3-9ca0-5be9-bf3c-57bf1bc368ca","name":"devfoxstar","slug":"/author/devfoxstar/","title":"Backend Developer","description":"개발자 여우별입니다. devfoxstar@gmail.com","skills":["Kotlin","Java","ASP.NET"],"social":[{"name":"Github","url":"https://github.com/devfoxstar"},{"name":"Site","url":"http://foxstar.me/"}],"thumbnail":{"__typename":"ImageSharp","ImageSharp_small":{"layout":"fixed","placeholder":{"fallback":"data:image/svg+xml,%3csvg%20xmlns='http://www.w3.org/2000/svg'%20width='48'%20height='48'%20viewBox='0%200%2048%2048'%20preserveAspectRatio='none'%3e%3cpath%20d='M7%2022l-1%207c0%206%200%206%202%206s3%200%202%202c0%202-5%203-5%200l-1-1c-2%201-2%206-1%206l1%203c0%204%202%204%202%200%201-3%207-5%207-2l1%202%201%202%206%201c6%200%207%200%208-3%201-2%202-3%205-3s3%200%203%203%200%203%206%203h5v-9h-7c-7%200-8%200-8-2-1-1%200-2%201-2%202%200%203-1%203-7%200-4-1-6-2-7l-1%205v6h-4c-4-1-4-1-4-4%200-5-1-7-4-7s-4%201-4%205c0%205%200%206-5%206H9v-5c0-6-1-7-2-5'%20fill='%23d3d3d3'%20fill-rule='evenodd'/%3e%3c/svg%3e"},"images":{"fallback":{"src":"/static/568992d156ba326baa3c5536bbf7ee4c/a7a66/devfoxstar.png","srcSet":"/static/568992d156ba326baa3c5536bbf7ee4c/a7a66/devfoxstar.png 48w,\n/static/568992d156ba326baa3c5536bbf7ee4c/416a0/devfoxstar.png 96w","sizes":"48px"},"sources":[{"srcSet":"/static/568992d156ba326baa3c5536bbf7ee4c/a3542/devfoxstar.webp 48w,\n/static/568992d156ba326baa3c5536bbf7ee4c/0f66d/devfoxstar.webp 96w","type":"image/webp","sizes":"48px"}]},"width":48,"height":48},"ImageSharp_regular":{"layout":"fixed","placeholder":{"fallback":"data:image/svg+xml,%3csvg%20xmlns='http://www.w3.org/2000/svg'%20width='48'%20height='48'%20viewBox='0%200%2048%2048'%20preserveAspectRatio='none'%3e%3cpath%20d='M7%2022l-1%207c0%206%200%206%202%206s3%200%202%202c0%202-5%203-5%200l-1-1c-2%201-2%206-1%206l1%203c0%204%202%204%202%200%201-3%207-5%207-2l1%202%201%202%206%201c6%200%207%200%208-3%201-2%202-3%205-3s3%200%203%203%200%203%206%203h5v-9h-7c-7%200-8%200-8-2-1-1%200-2%201-2%202%200%203-1%203-7%200-4-1-6-2-7l-1%205v6h-4c-4-1-4-1-4-4%200-5-1-7-4-7s-4%201-4%205c0%205%200%206-5%206H9v-5c0-6-1-7-2-5'%20fill='%23d3d3d3'%20fill-rule='evenodd'/%3e%3c/svg%3e"},"images":{"fallback":{"src":"/static/568992d156ba326baa3c5536bbf7ee4c/46e60/devfoxstar.png","srcSet":"/static/568992d156ba326baa3c5536bbf7ee4c/46e60/devfoxstar.png 150w,\n/static/568992d156ba326baa3c5536bbf7ee4c/d612b/devfoxstar.png 300w","sizes":"150px"},"sources":[{"srcSet":"/static/568992d156ba326baa3c5536bbf7ee4c/ae23d/devfoxstar.webp 150w,\n/static/568992d156ba326baa3c5536bbf7ee4c/bd37b/devfoxstar.webp 300w","type":"image/webp","sizes":"150px"}]},"width":150,"height":150}}},"thumbnail":null},{"id":"1a69f2c1-6e14-5505-9015-4fadea648da4","title":"웹개발자 커리어 플랜 (개발 기술 변화와 자기 개발)","slug":"/web/web-developer-career/","link":null,"excerpt":"…","timeToRead":1,"featured":null,"thumbnailText":null,"date":"April 11, 2022","category":{"id":"3114be4f-d302-5f77-b8ed-55ab9daad0ef","name":"Web","slug":"/category/web/","color":"#e9d8fd","icon":"/static/1de85bbd781531b61bf5a25b83d72d32/default.svg"},"author":{"id":"8100adb3-9ca0-5be9-bf3c-57bf1bc368ca","name":"devfoxstar","slug":"/author/devfoxstar/","title":"Backend Developer","description":"개발자 여우별입니다. devfoxstar@gmail.com","skills":["Kotlin","Java","ASP.NET"],"social":[{"name":"Github","url":"https://github.com/devfoxstar"},{"name":"Site","url":"http://foxstar.me/"}],"thumbnail":{"__typename":"ImageSharp","ImageSharp_small":{"layout":"fixed","placeholder":{"fallback":"data:image/svg+xml,%3csvg%20xmlns='http://www.w3.org/2000/svg'%20width='48'%20height='48'%20viewBox='0%200%2048%2048'%20preserveAspectRatio='none'%3e%3cpath%20d='M7%2022l-1%207c0%206%200%206%202%206s3%200%202%202c0%202-5%203-5%200l-1-1c-2%201-2%206-1%206l1%203c0%204%202%204%202%200%201-3%207-5%207-2l1%202%201%202%206%201c6%200%207%200%208-3%201-2%202-3%205-3s3%200%203%203%200%203%206%203h5v-9h-7c-7%200-8%200-8-2-1-1%200-2%201-2%202%200%203-1%203-7%200-4-1-6-2-7l-1%205v6h-4c-4-1-4-1-4-4%200-5-1-7-4-7s-4%201-4%205c0%205%200%206-5%206H9v-5c0-6-1-7-2-5'%20fill='%23d3d3d3'%20fill-rule='evenodd'/%3e%3c/svg%3e"},"images":{"fallback":{"src":"/static/568992d156ba326baa3c5536bbf7ee4c/a7a66/devfoxstar.png","srcSet":"/static/568992d156ba326baa3c5536bbf7ee4c/a7a66/devfoxstar.png 48w,\n/static/568992d156ba326baa3c5536bbf7ee4c/416a0/devfoxstar.png 96w","sizes":"48px"},"sources":[{"srcSet":"/static/568992d156ba326baa3c5536bbf7ee4c/a3542/devfoxstar.webp 48w,\n/static/568992d156ba326baa3c5536bbf7ee4c/0f66d/devfoxstar.webp 96w","type":"image/webp","sizes":"48px"}]},"width":48,"height":48},"ImageSharp_regular":{"layout":"fixed","placeholder":{"fallback":"data:image/svg+xml,%3csvg%20xmlns='http://www.w3.org/2000/svg'%20width='48'%20height='48'%20viewBox='0%200%2048%2048'%20preserveAspectRatio='none'%3e%3cpath%20d='M7%2022l-1%207c0%206%200%206%202%206s3%200%202%202c0%202-5%203-5%200l-1-1c-2%201-2%206-1%206l1%203c0%204%202%204%202%200%201-3%207-5%207-2l1%202%201%202%206%201c6%200%207%200%208-3%201-2%202-3%205-3s3%200%203%203%200%203%206%203h5v-9h-7c-7%200-8%200-8-2-1-1%200-2%201-2%202%200%203-1%203-7%200-4-1-6-2-7l-1%205v6h-4c-4-1-4-1-4-4%200-5-1-7-4-7s-4%201-4%205c0%205%200%206-5%206H9v-5c0-6-1-7-2-5'%20fill='%23d3d3d3'%20fill-rule='evenodd'/%3e%3c/svg%3e"},"images":{"fallback":{"src":"/static/568992d156ba326baa3c5536bbf7ee4c/46e60/devfoxstar.png","srcSet":"/static/568992d156ba326baa3c5536bbf7ee4c/46e60/devfoxstar.png 150w,\n/static/568992d156ba326baa3c5536bbf7ee4c/d612b/devfoxstar.png 300w","sizes":"150px"},"sources":[{"srcSet":"/static/568992d156ba326baa3c5536bbf7ee4c/ae23d/devfoxstar.webp 150w,\n/static/568992d156ba326baa3c5536bbf7ee4c/bd37b/devfoxstar.webp 300w","type":"image/webp","sizes":"150px"}]},"width":150,"height":150}}},"thumbnail":null},{"id":"3412497a-2839-5cd8-b97d-29f7a975f847","title":"개발에 유용한 도구 (코드, 테스트, 문서)","slug":"/web/development-tools/","link":null,"excerpt":"예전의 개발은 IDE…","timeToRead":1,"featured":null,"thumbnailText":null,"date":"March 14, 2022","category":{"id":"3114be4f-d302-5f77-b8ed-55ab9daad0ef","name":"Web","slug":"/category/web/","color":"#e9d8fd","icon":"/static/1de85bbd781531b61bf5a25b83d72d32/default.svg"},"author":{"id":"8100adb3-9ca0-5be9-bf3c-57bf1bc368ca","name":"devfoxstar","slug":"/author/devfoxstar/","title":"Backend Developer","description":"개발자 여우별입니다. devfoxstar@gmail.com","skills":["Kotlin","Java","ASP.NET"],"social":[{"name":"Github","url":"https://github.com/devfoxstar"},{"name":"Site","url":"http://foxstar.me/"}],"thumbnail":{"__typename":"ImageSharp","ImageSharp_small":{"layout":"fixed","placeholder":{"fallback":"data:image/svg+xml,%3csvg%20xmlns='http://www.w3.org/2000/svg'%20width='48'%20height='48'%20viewBox='0%200%2048%2048'%20preserveAspectRatio='none'%3e%3cpath%20d='M7%2022l-1%207c0%206%200%206%202%206s3%200%202%202c0%202-5%203-5%200l-1-1c-2%201-2%206-1%206l1%203c0%204%202%204%202%200%201-3%207-5%207-2l1%202%201%202%206%201c6%200%207%200%208-3%201-2%202-3%205-3s3%200%203%203%200%203%206%203h5v-9h-7c-7%200-8%200-8-2-1-1%200-2%201-2%202%200%203-1%203-7%200-4-1-6-2-7l-1%205v6h-4c-4-1-4-1-4-4%200-5-1-7-4-7s-4%201-4%205c0%205%200%206-5%206H9v-5c0-6-1-7-2-5'%20fill='%23d3d3d3'%20fill-rule='evenodd'/%3e%3c/svg%3e"},"images":{"fallback":{"src":"/static/568992d156ba326baa3c5536bbf7ee4c/a7a66/devfoxstar.png","srcSet":"/static/568992d156ba326baa3c5536bbf7ee4c/a7a66/devfoxstar.png 48w,\n/static/568992d156ba326baa3c5536bbf7ee4c/416a0/devfoxstar.png 96w","sizes":"48px"},"sources":[{"srcSet":"/static/568992d156ba326baa3c5536bbf7ee4c/a3542/devfoxstar.webp 48w,\n/static/568992d156ba326baa3c5536bbf7ee4c/0f66d/devfoxstar.webp 96w","type":"image/webp","sizes":"48px"}]},"width":48,"height":48},"ImageSharp_regular":{"layout":"fixed","placeholder":{"fallback":"data:image/svg+xml,%3csvg%20xmlns='http://www.w3.org/2000/svg'%20width='48'%20height='48'%20viewBox='0%200%2048%2048'%20preserveAspectRatio='none'%3e%3cpath%20d='M7%2022l-1%207c0%206%200%206%202%206s3%200%202%202c0%202-5%203-5%200l-1-1c-2%201-2%206-1%206l1%203c0%204%202%204%202%200%201-3%207-5%207-2l1%202%201%202%206%201c6%200%207%200%208-3%201-2%202-3%205-3s3%200%203%203%200%203%206%203h5v-9h-7c-7%200-8%200-8-2-1-1%200-2%201-2%202%200%203-1%203-7%200-4-1-6-2-7l-1%205v6h-4c-4-1-4-1-4-4%200-5-1-7-4-7s-4%201-4%205c0%205%200%206-5%206H9v-5c0-6-1-7-2-5'%20fill='%23d3d3d3'%20fill-rule='evenodd'/%3e%3c/svg%3e"},"images":{"fallback":{"src":"/static/568992d156ba326baa3c5536bbf7ee4c/46e60/devfoxstar.png","srcSet":"/static/568992d156ba326baa3c5536bbf7ee4c/46e60/devfoxstar.png 150w,\n/static/568992d156ba326baa3c5536bbf7ee4c/d612b/devfoxstar.png 300w","sizes":"150px"},"sources":[{"srcSet":"/static/568992d156ba326baa3c5536bbf7ee4c/ae23d/devfoxstar.webp 150w,\n/static/568992d156ba326baa3c5536bbf7ee4c/bd37b/devfoxstar.webp 300w","type":"image/webp","sizes":"150px"}]},"width":150,"height":150}}},"thumbnail":null}],"pageInfo":{"pageCount":3,"hasPreviousPage":true,"hasNextPage":true,"currentPage":2},"totalCount":16}},"pageContext":{"slug":"/category/web/","limit":6,"skip":6,"collectionType":"category","paginatePostsPage":true,"basePath":"/","services":{"algolia":false,"mailchimp":false,"disqus":false,"graphComment":false,"facebookComment":false},"siteUrl":null,"mobileMenu":{"title":"Topics","items":[{"name":"Database","slug":"/category/database/"},{"name":"DesignPattern","slug":"/category/designpattern/"},{"name":"Development","slug":"/category/development/"},{"name":"Data Structure","slug":"/category/data-structure/"},{"name":"Git","slug":"/category/git/"},{"name":"Java","slug":"/category/java/"},{"name":"Kotlin","slug":"/category/kotlin/"},{"name":"Middleware","slug":"/category/middleware/"},{"name":"MQ","slug":"/category/mq/"},{"name":"OS","slug":"/category/os/"},{"name":"PHP","slug":"/category/php/"},{"name":"Python","slug":"/category/python/"},{"name":"Test","slug":"/category/test/"},{"name":"Spring","slug":"/category/spring/"},{"name":"Web","slug":"/category/web/"}]},"darkMode":true,"includeExcerpt":true,"includeTimeToRead":true,"includeTableOfContents":true,"imageQuality":75}},
    "staticQueryHashes": ["1992822086","3117598128"]}