{
    "componentChunkName": "component---packages-blog-gatsby-blog-core-src-templates-collection-author-js",
    "path": "/author/devfoxstar/page/10/",
    "result": {"data":{"collectionInfo":{"id":"8100adb3-9ca0-5be9-bf3c-57bf1bc368ca","name":"devfoxstar","slug":"/author/devfoxstar/","title":"Backend Developer","description":"개발자 여우별입니다. devfoxstar@gmail.com","skills":["Kotlin","Java","ASP.NET"],"social":[{"name":"Github","url":"https://github.com/devfoxstar"},{"name":"Site","url":"http://foxstar.me/"}],"thumbnail":{"__typename":"ImageSharp","ImageSharp_small":{"layout":"fixed","placeholder":{"fallback":"data:image/svg+xml,%3csvg%20xmlns='http://www.w3.org/2000/svg'%20width='48'%20height='48'%20viewBox='0%200%2048%2048'%20preserveAspectRatio='none'%3e%3cpath%20d='M7%2022l-1%207c0%206%200%206%202%206s3%200%202%202c0%202-5%203-5%200l-1-1c-2%201-2%206-1%206l1%203c0%204%202%204%202%200%201-3%207-5%207-2l1%202%201%202%206%201c6%200%207%200%208-3%201-2%202-3%205-3s3%200%203%203%200%203%206%203h5v-9h-7c-7%200-8%200-8-2-1-1%200-2%201-2%202%200%203-1%203-7%200-4-1-6-2-7l-1%205v6h-4c-4-1-4-1-4-4%200-5-1-7-4-7s-4%201-4%205c0%205%200%206-5%206H9v-5c0-6-1-7-2-5'%20fill='%23d3d3d3'%20fill-rule='evenodd'/%3e%3c/svg%3e"},"images":{"fallback":{"src":"/static/568992d156ba326baa3c5536bbf7ee4c/a7a66/devfoxstar.png","srcSet":"/static/568992d156ba326baa3c5536bbf7ee4c/a7a66/devfoxstar.png 48w,\n/static/568992d156ba326baa3c5536bbf7ee4c/416a0/devfoxstar.png 96w","sizes":"48px"},"sources":[{"srcSet":"/static/568992d156ba326baa3c5536bbf7ee4c/a3542/devfoxstar.webp 48w,\n/static/568992d156ba326baa3c5536bbf7ee4c/0f66d/devfoxstar.webp 96w","type":"image/webp","sizes":"48px"}]},"width":48,"height":48},"ImageSharp_regular":{"layout":"fixed","placeholder":{"fallback":"data:image/svg+xml,%3csvg%20xmlns='http://www.w3.org/2000/svg'%20width='48'%20height='48'%20viewBox='0%200%2048%2048'%20preserveAspectRatio='none'%3e%3cpath%20d='M7%2022l-1%207c0%206%200%206%202%206s3%200%202%202c0%202-5%203-5%200l-1-1c-2%201-2%206-1%206l1%203c0%204%202%204%202%200%201-3%207-5%207-2l1%202%201%202%206%201c6%200%207%200%208-3%201-2%202-3%205-3s3%200%203%203%200%203%206%203h5v-9h-7c-7%200-8%200-8-2-1-1%200-2%201-2%202%200%203-1%203-7%200-4-1-6-2-7l-1%205v6h-4c-4-1-4-1-4-4%200-5-1-7-4-7s-4%201-4%205c0%205%200%206-5%206H9v-5c0-6-1-7-2-5'%20fill='%23d3d3d3'%20fill-rule='evenodd'/%3e%3c/svg%3e"},"images":{"fallback":{"src":"/static/568992d156ba326baa3c5536bbf7ee4c/46e60/devfoxstar.png","srcSet":"/static/568992d156ba326baa3c5536bbf7ee4c/46e60/devfoxstar.png 150w,\n/static/568992d156ba326baa3c5536bbf7ee4c/d612b/devfoxstar.png 300w","sizes":"150px"},"sources":[{"srcSet":"/static/568992d156ba326baa3c5536bbf7ee4c/ae23d/devfoxstar.webp 150w,\n/static/568992d156ba326baa3c5536bbf7ee4c/bd37b/devfoxstar.webp 300w","type":"image/webp","sizes":"150px"}]},"width":150,"height":150}}},"posts":{"nodes":[{"id":"dae288f7-b3be-518f-a2c1-b540fadaea9d","title":"코틀린 학습 - 주요 기능 및 코드 - 두 번째 (Kotlin Try Sample)","slug":"/kotlin/kotlin-study-second/","link":null,"excerpt":"Kotlin 은 다양한 기능을 간단하게 사용할 수 있습니다. 오늘은 코틀린의 주요 기능과 코드를 알아보겠습니다.   Simple…","timeToRead":1,"featured":null,"thumbnailText":null,"date":"September 12, 2022","category":{"id":"a137fa3d-c822-56d6-87c6-c57e5cdc5461","name":"Kotlin","slug":"/category/kotlin/","color":"#e9d8fd","icon":"/static/1de85bbd781531b61bf5a25b83d72d32/default.svg"},"author":{"id":"8100adb3-9ca0-5be9-bf3c-57bf1bc368ca","name":"devfoxstar","slug":"/author/devfoxstar/","title":"Backend Developer","description":"개발자 여우별입니다. devfoxstar@gmail.com","skills":["Kotlin","Java","ASP.NET"],"social":[{"name":"Github","url":"https://github.com/devfoxstar"},{"name":"Site","url":"http://foxstar.me/"}],"thumbnail":{"__typename":"ImageSharp","ImageSharp_small":{"layout":"fixed","placeholder":{"fallback":"data:image/svg+xml,%3csvg%20xmlns='http://www.w3.org/2000/svg'%20width='48'%20height='48'%20viewBox='0%200%2048%2048'%20preserveAspectRatio='none'%3e%3cpath%20d='M7%2022l-1%207c0%206%200%206%202%206s3%200%202%202c0%202-5%203-5%200l-1-1c-2%201-2%206-1%206l1%203c0%204%202%204%202%200%201-3%207-5%207-2l1%202%201%202%206%201c6%200%207%200%208-3%201-2%202-3%205-3s3%200%203%203%200%203%206%203h5v-9h-7c-7%200-8%200-8-2-1-1%200-2%201-2%202%200%203-1%203-7%200-4-1-6-2-7l-1%205v6h-4c-4-1-4-1-4-4%200-5-1-7-4-7s-4%201-4%205c0%205%200%206-5%206H9v-5c0-6-1-7-2-5'%20fill='%23d3d3d3'%20fill-rule='evenodd'/%3e%3c/svg%3e"},"images":{"fallback":{"src":"/static/568992d156ba326baa3c5536bbf7ee4c/a7a66/devfoxstar.png","srcSet":"/static/568992d156ba326baa3c5536bbf7ee4c/a7a66/devfoxstar.png 48w,\n/static/568992d156ba326baa3c5536bbf7ee4c/416a0/devfoxstar.png 96w","sizes":"48px"},"sources":[{"srcSet":"/static/568992d156ba326baa3c5536bbf7ee4c/a3542/devfoxstar.webp 48w,\n/static/568992d156ba326baa3c5536bbf7ee4c/0f66d/devfoxstar.webp 96w","type":"image/webp","sizes":"48px"}]},"width":48,"height":48},"ImageSharp_regular":{"layout":"fixed","placeholder":{"fallback":"data:image/svg+xml,%3csvg%20xmlns='http://www.w3.org/2000/svg'%20width='48'%20height='48'%20viewBox='0%200%2048%2048'%20preserveAspectRatio='none'%3e%3cpath%20d='M7%2022l-1%207c0%206%200%206%202%206s3%200%202%202c0%202-5%203-5%200l-1-1c-2%201-2%206-1%206l1%203c0%204%202%204%202%200%201-3%207-5%207-2l1%202%201%202%206%201c6%200%207%200%208-3%201-2%202-3%205-3s3%200%203%203%200%203%206%203h5v-9h-7c-7%200-8%200-8-2-1-1%200-2%201-2%202%200%203-1%203-7%200-4-1-6-2-7l-1%205v6h-4c-4-1-4-1-4-4%200-5-1-7-4-7s-4%201-4%205c0%205%200%206-5%206H9v-5c0-6-1-7-2-5'%20fill='%23d3d3d3'%20fill-rule='evenodd'/%3e%3c/svg%3e"},"images":{"fallback":{"src":"/static/568992d156ba326baa3c5536bbf7ee4c/46e60/devfoxstar.png","srcSet":"/static/568992d156ba326baa3c5536bbf7ee4c/46e60/devfoxstar.png 150w,\n/static/568992d156ba326baa3c5536bbf7ee4c/d612b/devfoxstar.png 300w","sizes":"150px"},"sources":[{"srcSet":"/static/568992d156ba326baa3c5536bbf7ee4c/ae23d/devfoxstar.webp 150w,\n/static/568992d156ba326baa3c5536bbf7ee4c/bd37b/devfoxstar.webp 300w","type":"image/webp","sizes":"150px"}]},"width":150,"height":150}}},"thumbnail":null},{"id":"739b273e-912a-5315-a117-806fec41806c","title":"코틀린 학습 - 개요 및 특징 - 첫 번째 (Kotlin Background)","slug":"/kotlin/kotlin-study-first/","link":null,"excerpt":"최근 많은 프로젝트들이  SpringBoot + Kotlin 으로 구축되고 있습니다. 이전에  SpringBoot + Java…","timeToRead":1,"featured":null,"thumbnailText":null,"date":"September 11, 2022","category":{"id":"a137fa3d-c822-56d6-87c6-c57e5cdc5461","name":"Kotlin","slug":"/category/kotlin/","color":"#e9d8fd","icon":"/static/1de85bbd781531b61bf5a25b83d72d32/default.svg"},"author":{"id":"8100adb3-9ca0-5be9-bf3c-57bf1bc368ca","name":"devfoxstar","slug":"/author/devfoxstar/","title":"Backend Developer","description":"개발자 여우별입니다. devfoxstar@gmail.com","skills":["Kotlin","Java","ASP.NET"],"social":[{"name":"Github","url":"https://github.com/devfoxstar"},{"name":"Site","url":"http://foxstar.me/"}],"thumbnail":{"__typename":"ImageSharp","ImageSharp_small":{"layout":"fixed","placeholder":{"fallback":"data:image/svg+xml,%3csvg%20xmlns='http://www.w3.org/2000/svg'%20width='48'%20height='48'%20viewBox='0%200%2048%2048'%20preserveAspectRatio='none'%3e%3cpath%20d='M7%2022l-1%207c0%206%200%206%202%206s3%200%202%202c0%202-5%203-5%200l-1-1c-2%201-2%206-1%206l1%203c0%204%202%204%202%200%201-3%207-5%207-2l1%202%201%202%206%201c6%200%207%200%208-3%201-2%202-3%205-3s3%200%203%203%200%203%206%203h5v-9h-7c-7%200-8%200-8-2-1-1%200-2%201-2%202%200%203-1%203-7%200-4-1-6-2-7l-1%205v6h-4c-4-1-4-1-4-4%200-5-1-7-4-7s-4%201-4%205c0%205%200%206-5%206H9v-5c0-6-1-7-2-5'%20fill='%23d3d3d3'%20fill-rule='evenodd'/%3e%3c/svg%3e"},"images":{"fallback":{"src":"/static/568992d156ba326baa3c5536bbf7ee4c/a7a66/devfoxstar.png","srcSet":"/static/568992d156ba326baa3c5536bbf7ee4c/a7a66/devfoxstar.png 48w,\n/static/568992d156ba326baa3c5536bbf7ee4c/416a0/devfoxstar.png 96w","sizes":"48px"},"sources":[{"srcSet":"/static/568992d156ba326baa3c5536bbf7ee4c/a3542/devfoxstar.webp 48w,\n/static/568992d156ba326baa3c5536bbf7ee4c/0f66d/devfoxstar.webp 96w","type":"image/webp","sizes":"48px"}]},"width":48,"height":48},"ImageSharp_regular":{"layout":"fixed","placeholder":{"fallback":"data:image/svg+xml,%3csvg%20xmlns='http://www.w3.org/2000/svg'%20width='48'%20height='48'%20viewBox='0%200%2048%2048'%20preserveAspectRatio='none'%3e%3cpath%20d='M7%2022l-1%207c0%206%200%206%202%206s3%200%202%202c0%202-5%203-5%200l-1-1c-2%201-2%206-1%206l1%203c0%204%202%204%202%200%201-3%207-5%207-2l1%202%201%202%206%201c6%200%207%200%208-3%201-2%202-3%205-3s3%200%203%203%200%203%206%203h5v-9h-7c-7%200-8%200-8-2-1-1%200-2%201-2%202%200%203-1%203-7%200-4-1-6-2-7l-1%205v6h-4c-4-1-4-1-4-4%200-5-1-7-4-7s-4%201-4%205c0%205%200%206-5%206H9v-5c0-6-1-7-2-5'%20fill='%23d3d3d3'%20fill-rule='evenodd'/%3e%3c/svg%3e"},"images":{"fallback":{"src":"/static/568992d156ba326baa3c5536bbf7ee4c/46e60/devfoxstar.png","srcSet":"/static/568992d156ba326baa3c5536bbf7ee4c/46e60/devfoxstar.png 150w,\n/static/568992d156ba326baa3c5536bbf7ee4c/d612b/devfoxstar.png 300w","sizes":"150px"},"sources":[{"srcSet":"/static/568992d156ba326baa3c5536bbf7ee4c/ae23d/devfoxstar.webp 150w,\n/static/568992d156ba326baa3c5536bbf7ee4c/bd37b/devfoxstar.webp 300w","type":"image/webp","sizes":"150px"}]},"width":150,"height":150}}},"thumbnail":null},{"id":"246f17f7-5e2a-5fb1-af91-8fba615c4de9","title":"자바에서 리스트 슬라이스 (Java List Slice - subList, stream, for loop)","slug":"/java/java-list-slice/","link":null,"excerpt":"자바 리스트에서 필요한 위치의 데이터만 슬라이스 하는 방법을 알아보겠습니다. 효율적인 데이터 가공과 빠른 성능은 코드 품질을 높이기 위해 꼭 필요합니다.     for loop…","timeToRead":1,"featured":null,"thumbnailText":null,"date":"September 05, 2022","category":{"id":"280d89d9-9555-54bc-b87d-881bf24b7d02","name":"Java","slug":"/category/java/","color":"#e9d8fd","icon":"/static/1de85bbd781531b61bf5a25b83d72d32/default.svg"},"author":{"id":"8100adb3-9ca0-5be9-bf3c-57bf1bc368ca","name":"devfoxstar","slug":"/author/devfoxstar/","title":"Backend Developer","description":"개발자 여우별입니다. devfoxstar@gmail.com","skills":["Kotlin","Java","ASP.NET"],"social":[{"name":"Github","url":"https://github.com/devfoxstar"},{"name":"Site","url":"http://foxstar.me/"}],"thumbnail":{"__typename":"ImageSharp","ImageSharp_small":{"layout":"fixed","placeholder":{"fallback":"data:image/svg+xml,%3csvg%20xmlns='http://www.w3.org/2000/svg'%20width='48'%20height='48'%20viewBox='0%200%2048%2048'%20preserveAspectRatio='none'%3e%3cpath%20d='M7%2022l-1%207c0%206%200%206%202%206s3%200%202%202c0%202-5%203-5%200l-1-1c-2%201-2%206-1%206l1%203c0%204%202%204%202%200%201-3%207-5%207-2l1%202%201%202%206%201c6%200%207%200%208-3%201-2%202-3%205-3s3%200%203%203%200%203%206%203h5v-9h-7c-7%200-8%200-8-2-1-1%200-2%201-2%202%200%203-1%203-7%200-4-1-6-2-7l-1%205v6h-4c-4-1-4-1-4-4%200-5-1-7-4-7s-4%201-4%205c0%205%200%206-5%206H9v-5c0-6-1-7-2-5'%20fill='%23d3d3d3'%20fill-rule='evenodd'/%3e%3c/svg%3e"},"images":{"fallback":{"src":"/static/568992d156ba326baa3c5536bbf7ee4c/a7a66/devfoxstar.png","srcSet":"/static/568992d156ba326baa3c5536bbf7ee4c/a7a66/devfoxstar.png 48w,\n/static/568992d156ba326baa3c5536bbf7ee4c/416a0/devfoxstar.png 96w","sizes":"48px"},"sources":[{"srcSet":"/static/568992d156ba326baa3c5536bbf7ee4c/a3542/devfoxstar.webp 48w,\n/static/568992d156ba326baa3c5536bbf7ee4c/0f66d/devfoxstar.webp 96w","type":"image/webp","sizes":"48px"}]},"width":48,"height":48},"ImageSharp_regular":{"layout":"fixed","placeholder":{"fallback":"data:image/svg+xml,%3csvg%20xmlns='http://www.w3.org/2000/svg'%20width='48'%20height='48'%20viewBox='0%200%2048%2048'%20preserveAspectRatio='none'%3e%3cpath%20d='M7%2022l-1%207c0%206%200%206%202%206s3%200%202%202c0%202-5%203-5%200l-1-1c-2%201-2%206-1%206l1%203c0%204%202%204%202%200%201-3%207-5%207-2l1%202%201%202%206%201c6%200%207%200%208-3%201-2%202-3%205-3s3%200%203%203%200%203%206%203h5v-9h-7c-7%200-8%200-8-2-1-1%200-2%201-2%202%200%203-1%203-7%200-4-1-6-2-7l-1%205v6h-4c-4-1-4-1-4-4%200-5-1-7-4-7s-4%201-4%205c0%205%200%206-5%206H9v-5c0-6-1-7-2-5'%20fill='%23d3d3d3'%20fill-rule='evenodd'/%3e%3c/svg%3e"},"images":{"fallback":{"src":"/static/568992d156ba326baa3c5536bbf7ee4c/46e60/devfoxstar.png","srcSet":"/static/568992d156ba326baa3c5536bbf7ee4c/46e60/devfoxstar.png 150w,\n/static/568992d156ba326baa3c5536bbf7ee4c/d612b/devfoxstar.png 300w","sizes":"150px"},"sources":[{"srcSet":"/static/568992d156ba326baa3c5536bbf7ee4c/ae23d/devfoxstar.webp 150w,\n/static/568992d156ba326baa3c5536bbf7ee4c/bd37b/devfoxstar.webp 300w","type":"image/webp","sizes":"150px"}]},"width":150,"height":150}}},"thumbnail":null},{"id":"3aff041d-73d5-5ad4-8055-9cac581cf7ca","title":"톰캣 JSP 사이즈 오류 (exceeding the 65535 bytes limit)","slug":"/java/tomcat-jsp-size-limit/","link":null,"excerpt":"Tomcat 으로 멀쩡히 서비스 중이던 어느 날, 갑자기 오류가 발생했습니다. 배포 이후의 오류라서 배포 파일에 문제를 찾아보기 시작했습니다.   오류 원인 톰캣에서 JSP…","timeToRead":1,"featured":null,"thumbnailText":null,"date":"August 21, 2022","category":{"id":"280d89d9-9555-54bc-b87d-881bf24b7d02","name":"Java","slug":"/category/java/","color":"#e9d8fd","icon":"/static/1de85bbd781531b61bf5a25b83d72d32/default.svg"},"author":{"id":"8100adb3-9ca0-5be9-bf3c-57bf1bc368ca","name":"devfoxstar","slug":"/author/devfoxstar/","title":"Backend Developer","description":"개발자 여우별입니다. devfoxstar@gmail.com","skills":["Kotlin","Java","ASP.NET"],"social":[{"name":"Github","url":"https://github.com/devfoxstar"},{"name":"Site","url":"http://foxstar.me/"}],"thumbnail":{"__typename":"ImageSharp","ImageSharp_small":{"layout":"fixed","placeholder":{"fallback":"data:image/svg+xml,%3csvg%20xmlns='http://www.w3.org/2000/svg'%20width='48'%20height='48'%20viewBox='0%200%2048%2048'%20preserveAspectRatio='none'%3e%3cpath%20d='M7%2022l-1%207c0%206%200%206%202%206s3%200%202%202c0%202-5%203-5%200l-1-1c-2%201-2%206-1%206l1%203c0%204%202%204%202%200%201-3%207-5%207-2l1%202%201%202%206%201c6%200%207%200%208-3%201-2%202-3%205-3s3%200%203%203%200%203%206%203h5v-9h-7c-7%200-8%200-8-2-1-1%200-2%201-2%202%200%203-1%203-7%200-4-1-6-2-7l-1%205v6h-4c-4-1-4-1-4-4%200-5-1-7-4-7s-4%201-4%205c0%205%200%206-5%206H9v-5c0-6-1-7-2-5'%20fill='%23d3d3d3'%20fill-rule='evenodd'/%3e%3c/svg%3e"},"images":{"fallback":{"src":"/static/568992d156ba326baa3c5536bbf7ee4c/a7a66/devfoxstar.png","srcSet":"/static/568992d156ba326baa3c5536bbf7ee4c/a7a66/devfoxstar.png 48w,\n/static/568992d156ba326baa3c5536bbf7ee4c/416a0/devfoxstar.png 96w","sizes":"48px"},"sources":[{"srcSet":"/static/568992d156ba326baa3c5536bbf7ee4c/a3542/devfoxstar.webp 48w,\n/static/568992d156ba326baa3c5536bbf7ee4c/0f66d/devfoxstar.webp 96w","type":"image/webp","sizes":"48px"}]},"width":48,"height":48},"ImageSharp_regular":{"layout":"fixed","placeholder":{"fallback":"data:image/svg+xml,%3csvg%20xmlns='http://www.w3.org/2000/svg'%20width='48'%20height='48'%20viewBox='0%200%2048%2048'%20preserveAspectRatio='none'%3e%3cpath%20d='M7%2022l-1%207c0%206%200%206%202%206s3%200%202%202c0%202-5%203-5%200l-1-1c-2%201-2%206-1%206l1%203c0%204%202%204%202%200%201-3%207-5%207-2l1%202%201%202%206%201c6%200%207%200%208-3%201-2%202-3%205-3s3%200%203%203%200%203%206%203h5v-9h-7c-7%200-8%200-8-2-1-1%200-2%201-2%202%200%203-1%203-7%200-4-1-6-2-7l-1%205v6h-4c-4-1-4-1-4-4%200-5-1-7-4-7s-4%201-4%205c0%205%200%206-5%206H9v-5c0-6-1-7-2-5'%20fill='%23d3d3d3'%20fill-rule='evenodd'/%3e%3c/svg%3e"},"images":{"fallback":{"src":"/static/568992d156ba326baa3c5536bbf7ee4c/46e60/devfoxstar.png","srcSet":"/static/568992d156ba326baa3c5536bbf7ee4c/46e60/devfoxstar.png 150w,\n/static/568992d156ba326baa3c5536bbf7ee4c/d612b/devfoxstar.png 300w","sizes":"150px"},"sources":[{"srcSet":"/static/568992d156ba326baa3c5536bbf7ee4c/ae23d/devfoxstar.webp 150w,\n/static/568992d156ba326baa3c5536bbf7ee4c/bd37b/devfoxstar.webp 300w","type":"image/webp","sizes":"150px"}]},"width":150,"height":150}}},"thumbnail":null},{"id":"8fac2dc9-2191-5ea4-8c59-c090afb1d175","title":"자바 스프링에서 Profile 정보 가져오기 (Spring Profiles Active)","slug":"/java/spring-profiles-active/","link":null,"excerpt":"스프링 프로젝트에서  Profile  설정은 기본입니다. local, dev, qa, stg, prod  등 개발 환경에 맞게 지정해 줍니다.   가끔 지정된 Profile…","timeToRead":1,"featured":null,"thumbnailText":null,"date":"August 19, 2022","category":{"id":"280d89d9-9555-54bc-b87d-881bf24b7d02","name":"Java","slug":"/category/java/","color":"#e9d8fd","icon":"/static/1de85bbd781531b61bf5a25b83d72d32/default.svg"},"author":{"id":"8100adb3-9ca0-5be9-bf3c-57bf1bc368ca","name":"devfoxstar","slug":"/author/devfoxstar/","title":"Backend Developer","description":"개발자 여우별입니다. devfoxstar@gmail.com","skills":["Kotlin","Java","ASP.NET"],"social":[{"name":"Github","url":"https://github.com/devfoxstar"},{"name":"Site","url":"http://foxstar.me/"}],"thumbnail":{"__typename":"ImageSharp","ImageSharp_small":{"layout":"fixed","placeholder":{"fallback":"data:image/svg+xml,%3csvg%20xmlns='http://www.w3.org/2000/svg'%20width='48'%20height='48'%20viewBox='0%200%2048%2048'%20preserveAspectRatio='none'%3e%3cpath%20d='M7%2022l-1%207c0%206%200%206%202%206s3%200%202%202c0%202-5%203-5%200l-1-1c-2%201-2%206-1%206l1%203c0%204%202%204%202%200%201-3%207-5%207-2l1%202%201%202%206%201c6%200%207%200%208-3%201-2%202-3%205-3s3%200%203%203%200%203%206%203h5v-9h-7c-7%200-8%200-8-2-1-1%200-2%201-2%202%200%203-1%203-7%200-4-1-6-2-7l-1%205v6h-4c-4-1-4-1-4-4%200-5-1-7-4-7s-4%201-4%205c0%205%200%206-5%206H9v-5c0-6-1-7-2-5'%20fill='%23d3d3d3'%20fill-rule='evenodd'/%3e%3c/svg%3e"},"images":{"fallback":{"src":"/static/568992d156ba326baa3c5536bbf7ee4c/a7a66/devfoxstar.png","srcSet":"/static/568992d156ba326baa3c5536bbf7ee4c/a7a66/devfoxstar.png 48w,\n/static/568992d156ba326baa3c5536bbf7ee4c/416a0/devfoxstar.png 96w","sizes":"48px"},"sources":[{"srcSet":"/static/568992d156ba326baa3c5536bbf7ee4c/a3542/devfoxstar.webp 48w,\n/static/568992d156ba326baa3c5536bbf7ee4c/0f66d/devfoxstar.webp 96w","type":"image/webp","sizes":"48px"}]},"width":48,"height":48},"ImageSharp_regular":{"layout":"fixed","placeholder":{"fallback":"data:image/svg+xml,%3csvg%20xmlns='http://www.w3.org/2000/svg'%20width='48'%20height='48'%20viewBox='0%200%2048%2048'%20preserveAspectRatio='none'%3e%3cpath%20d='M7%2022l-1%207c0%206%200%206%202%206s3%200%202%202c0%202-5%203-5%200l-1-1c-2%201-2%206-1%206l1%203c0%204%202%204%202%200%201-3%207-5%207-2l1%202%201%202%206%201c6%200%207%200%208-3%201-2%202-3%205-3s3%200%203%203%200%203%206%203h5v-9h-7c-7%200-8%200-8-2-1-1%200-2%201-2%202%200%203-1%203-7%200-4-1-6-2-7l-1%205v6h-4c-4-1-4-1-4-4%200-5-1-7-4-7s-4%201-4%205c0%205%200%206-5%206H9v-5c0-6-1-7-2-5'%20fill='%23d3d3d3'%20fill-rule='evenodd'/%3e%3c/svg%3e"},"images":{"fallback":{"src":"/static/568992d156ba326baa3c5536bbf7ee4c/46e60/devfoxstar.png","srcSet":"/static/568992d156ba326baa3c5536bbf7ee4c/46e60/devfoxstar.png 150w,\n/static/568992d156ba326baa3c5536bbf7ee4c/d612b/devfoxstar.png 300w","sizes":"150px"},"sources":[{"srcSet":"/static/568992d156ba326baa3c5536bbf7ee4c/ae23d/devfoxstar.webp 150w,\n/static/568992d156ba326baa3c5536bbf7ee4c/bd37b/devfoxstar.webp 300w","type":"image/webp","sizes":"150px"}]},"width":150,"height":150}}},"thumbnail":null},{"id":"ac4ab095-8d91-5b0f-926e-8837d0bf57a8","title":"마이바티스 컬럼 자동으로 맵핑하기 (MyBatis Column CamelCase Auto Mapping)","slug":"/java/mybatis-column-camelcase-automapping/","link":null,"excerpt":"MyBatis…","timeToRead":1,"featured":null,"thumbnailText":null,"date":"August 16, 2022","category":{"id":"280d89d9-9555-54bc-b87d-881bf24b7d02","name":"Java","slug":"/category/java/","color":"#e9d8fd","icon":"/static/1de85bbd781531b61bf5a25b83d72d32/default.svg"},"author":{"id":"8100adb3-9ca0-5be9-bf3c-57bf1bc368ca","name":"devfoxstar","slug":"/author/devfoxstar/","title":"Backend Developer","description":"개발자 여우별입니다. devfoxstar@gmail.com","skills":["Kotlin","Java","ASP.NET"],"social":[{"name":"Github","url":"https://github.com/devfoxstar"},{"name":"Site","url":"http://foxstar.me/"}],"thumbnail":{"__typename":"ImageSharp","ImageSharp_small":{"layout":"fixed","placeholder":{"fallback":"data:image/svg+xml,%3csvg%20xmlns='http://www.w3.org/2000/svg'%20width='48'%20height='48'%20viewBox='0%200%2048%2048'%20preserveAspectRatio='none'%3e%3cpath%20d='M7%2022l-1%207c0%206%200%206%202%206s3%200%202%202c0%202-5%203-5%200l-1-1c-2%201-2%206-1%206l1%203c0%204%202%204%202%200%201-3%207-5%207-2l1%202%201%202%206%201c6%200%207%200%208-3%201-2%202-3%205-3s3%200%203%203%200%203%206%203h5v-9h-7c-7%200-8%200-8-2-1-1%200-2%201-2%202%200%203-1%203-7%200-4-1-6-2-7l-1%205v6h-4c-4-1-4-1-4-4%200-5-1-7-4-7s-4%201-4%205c0%205%200%206-5%206H9v-5c0-6-1-7-2-5'%20fill='%23d3d3d3'%20fill-rule='evenodd'/%3e%3c/svg%3e"},"images":{"fallback":{"src":"/static/568992d156ba326baa3c5536bbf7ee4c/a7a66/devfoxstar.png","srcSet":"/static/568992d156ba326baa3c5536bbf7ee4c/a7a66/devfoxstar.png 48w,\n/static/568992d156ba326baa3c5536bbf7ee4c/416a0/devfoxstar.png 96w","sizes":"48px"},"sources":[{"srcSet":"/static/568992d156ba326baa3c5536bbf7ee4c/a3542/devfoxstar.webp 48w,\n/static/568992d156ba326baa3c5536bbf7ee4c/0f66d/devfoxstar.webp 96w","type":"image/webp","sizes":"48px"}]},"width":48,"height":48},"ImageSharp_regular":{"layout":"fixed","placeholder":{"fallback":"data:image/svg+xml,%3csvg%20xmlns='http://www.w3.org/2000/svg'%20width='48'%20height='48'%20viewBox='0%200%2048%2048'%20preserveAspectRatio='none'%3e%3cpath%20d='M7%2022l-1%207c0%206%200%206%202%206s3%200%202%202c0%202-5%203-5%200l-1-1c-2%201-2%206-1%206l1%203c0%204%202%204%202%200%201-3%207-5%207-2l1%202%201%202%206%201c6%200%207%200%208-3%201-2%202-3%205-3s3%200%203%203%200%203%206%203h5v-9h-7c-7%200-8%200-8-2-1-1%200-2%201-2%202%200%203-1%203-7%200-4-1-6-2-7l-1%205v6h-4c-4-1-4-1-4-4%200-5-1-7-4-7s-4%201-4%205c0%205%200%206-5%206H9v-5c0-6-1-7-2-5'%20fill='%23d3d3d3'%20fill-rule='evenodd'/%3e%3c/svg%3e"},"images":{"fallback":{"src":"/static/568992d156ba326baa3c5536bbf7ee4c/46e60/devfoxstar.png","srcSet":"/static/568992d156ba326baa3c5536bbf7ee4c/46e60/devfoxstar.png 150w,\n/static/568992d156ba326baa3c5536bbf7ee4c/d612b/devfoxstar.png 300w","sizes":"150px"},"sources":[{"srcSet":"/static/568992d156ba326baa3c5536bbf7ee4c/ae23d/devfoxstar.webp 150w,\n/static/568992d156ba326baa3c5536bbf7ee4c/bd37b/devfoxstar.webp 300w","type":"image/webp","sizes":"150px"}]},"width":150,"height":150}}},"thumbnail":null}],"pageInfo":{"pageCount":17,"hasPreviousPage":true,"hasNextPage":true,"currentPage":10},"totalCount":102}},"pageContext":{"slug":"/author/devfoxstar/","limit":6,"skip":54,"collectionType":"author","paginatePostsPage":true,"basePath":"/","services":{"algolia":false,"mailchimp":false,"disqus":false,"graphComment":false,"facebookComment":false},"siteUrl":null,"mobileMenu":{"title":"Topics","items":[{"name":"Database","slug":"/category/database/"},{"name":"DesignPattern","slug":"/category/designpattern/"},{"name":"Development","slug":"/category/development/"},{"name":"Data Structure","slug":"/category/data-structure/"},{"name":"Git","slug":"/category/git/"},{"name":"Java","slug":"/category/java/"},{"name":"Kotlin","slug":"/category/kotlin/"},{"name":"Middleware","slug":"/category/middleware/"},{"name":"MQ","slug":"/category/mq/"},{"name":"OS","slug":"/category/os/"},{"name":"PHP","slug":"/category/php/"},{"name":"Python","slug":"/category/python/"},{"name":"Test","slug":"/category/test/"},{"name":"Spring","slug":"/category/spring/"},{"name":"Web","slug":"/category/web/"}]},"darkMode":true,"includeExcerpt":true,"includeTimeToRead":true,"includeTableOfContents":true,"imageQuality":75}},
    "staticQueryHashes": ["1992822086","3117598128"]}